,H,H/C,O/C,Surface area,Adsorption_time (min),Ci,solution pH,Volume (L),loading (g),Ion Concentration (M),Adsorbent,Feedstock,inorganics,Anion_type
0,0.0,-0.1272685669670084,-0.08012506399851524,-0.2874879952697651,0.0,-2.8063642182121895,0.3011605893984842,0.0,-8.528645169729641,0.0,-0.16592809523716695,-0.6914647042621535,0.7562765618169002,-0.2152421537991014
1,-0.8983877878832098,0.0,-0.08110232139471663,0.0,0.0,-3.6346293623941133,0.0,0.0,-3.3798085953782584,0.0,-4.196575233664946,-0.006905087153060485,-3.066125652334252,0.0
2,0.0,0.2872880193737529,0.0,0.0,0.0,1.1585003923935124,0.0,0.0,-6.1480405903652775,0.0,-6.076361907158061,-4.026848620224071,0.0,0.4144172184820416
3,0.0,0.0,3.5646829137400857,0.0,2.99518578152764,47.26261657411817,5.3064990520501425,10.931754944639351,116.24212573809852,-2.56607205048865,51.40948763692353,30.193167794923852,30.497631281138865,-2.4090321055970207
4,0.0,0.0,0.0,0.33410730191260196,0.1786405964397293,1.155692420512226,-0.5606252716392826,0.0,14.753023264825824,0.33760019681983167,1.6782372465026478,-0.6593157976451938,0.39047428547495855,0.0
5,0.0,0.0,0.0,0.0,0.0,0.7117255173617586,0.0,0.0,15.332390434465275,0.0,3.0455886906413703,0.0,0.27496935293220304,0.0
6,0.0,-0.16658245487855705,-0.1563795356293345,-0.12156254480641682,0.4101376962167853,-2.650506284714501,0.4558026716420862,0.0,-8.019909685953712,0.0,-0.02625128023167722,-1.3131294374064186,-0.8268869175408398,-0.12918975824382528
7,-0.12186269458890742,0.0,0.0,-0.18408499855470506,0.0,-0.8376150564288345,0.0,-0.08576739908250808,-4.896575762398623,0.0,-4.845621990618621,-0.579911531791593,-3.2647754017424795,-0.26425784927135254
8,0.0,0.0,0.0,0.0,0.0,0.656186537628428,2.1214105360470055,0.0,16.069322035929623,0.24582014024025248,1.290248910247299,0.0,0.40358753818885873,0.0
9,0.0,0.0,0.0,0.15139149448697292,0.09978197867208825,1.1348864573768667,0.5655113520719363,0.0,-11.368964246944772,0.1384573946589133,1.4483724105620956,-1.302204780026273,0.5185538150377791,-0.1377405273455814
10,0.0,-0.15056240359742823,0.0,-0.19560542009677206,0.0,-2.035697861064084,1.1742946511559857,0.0,-2.888845358652471,0.0,1.50113191729762,-1.008335269371806,-4.338340858258196,-0.11861211755789292
11,0.0,0.0,0.0,0.0,0.0,-2.476937967472762,0.46819132543491826,0.0,-8.418443395519438,0.0,0.9455923118855984,-1.0886450748326413,-0.6836754663631321,0.0
12,0.0,0.0,0.0,-0.21217022667263652,0.0,-2.0918148508131447,0.0,0.0,-6.689696571339172,0.0,-0.44347397021665214,-0.6699256182795009,-3.611446414083092,0.0
13,0.0,0.0,-0.3064745385404155,-0.35384237689142495,0.0,-2.5328337155940126,0.7814952368042389,0.0,-6.635334630497793,0.0,-0.24275978551776767,-0.9219887715207955,-0.8369313292440079,0.0
14,0.0,0.0,0.0,0.0,0.0,38.95465088219149,7.486300168651155,0.0,117.36031100160916,0.0,54.325570708242736,29.026059174706575,33.09694927253764,6.2834919976669426
15,0.0,0.0,0.0,0.10721622940751167,0.0,-1.9062353717022067,0.0,0.0,-6.861076039783686,0.0,-0.545558175129589,-1.0921603974189251,-2.8654313040038684,0.0
16,0.8342211475519514,-0.2635586482295915,0.0,-0.36149581220377236,0.0,-3.5241805085879676,0.0,-0.003073660486631269,-3.8176966849360325,-0.6981791194287821,-4.3064510116349215,-0.1616959865076204,-2.0409624121461363,-0.9204613435930522
17,0.0,0.0,0.0,0.0,-1.3747041585309263,-0.17452393567851215,0.0,0.0,-6.634630596429223,0.0,-2.1364559600733086,-1.0009726639976302,-0.7792705853365671,0.0
18,-0.32393332234291883,0.0,0.0,0.0,-0.2801049744556403,-3.9358190358891116,0.0,0.0,-4.969677247419524,0.0,-1.486499392769094,-0.7982124471064935,-3.2920635410727925,0.0
19,0.0,0.0,0.0,0.0,-0.29722756145658025,0.0,-5.8900374311999375,-0.6850287780142015,-3.1367819824820433,0.0,-3.554555944181775,-0.6047634301100739,0.0,-0.6780513038095943
20,0.0,0.0,0.0,-0.25782664733058613,0.0,0.0,0.0,0.0,-1.9366430386409235,-4.843944818839601,-6.279629443922868,-0.5748876726054544,-0.3475806502574166,0.5715399218589106
21,0.0,0.0,-0.0032621235328088227,-0.10897182052347938,0.0,0.0,0.0,0.0,-2.0329224893888314,0.0,-6.2298912737282945,-0.6844539835635337,-0.5716600949598547,0.0
22,0.0,0.0,-0.340827066342273,0.0,-0.6046938661269943,1.3185341091185485,0.36525302236162016,-0.10298749701182164,-9.812617344881632,0.0,2.550176692823009,-5.1432682543061015,0.9061050618878372,0.0
23,0.0,0.0,-0.2623107202190136,0.03671188740480602,0.0,-2.508954932065272,0.5080466036346882,0.0,-8.188299350256736,0.0,-0.3760341847061319,-0.960263916934128,-0.7992411420526953,0.0
24,0.0,0.0,-0.017756382034789908,0.0,-1.2506362329996028,-2.476336313501241,0.09470114753265779,0.0,-7.897608265608822,0.0,0.7851030050472789,-0.9059774295234266,-0.43556969000216217,-0.11510004196509449
25,0.0,-0.2031611450510477,0.0,0.9033873853110038,0.0,-3.9200668401204215,0.0870685726644012,-0.4216685202184826,-5.467490420514593,0.0,-1.6838434944140177,-0.8408538480363423,-3.242706174398313,-0.29723496509879155
26,0.0,0.0,0.0,0.0,0.0,1.802627927334334,0.0,0.0,-10.148430350425706,0.0,2.7589782247486987,-5.196791713210265,0.8959886908280588,0.0
27,0.0,0.12292299526947037,0.0,-0.281503739681197,0.16021835169505572,1.8597786119313584,0.301213343433715,0.0,-11.562338676475669,0.0,0.09787970468149965,-1.2535338948697214,0.3263464272237169,0.0
28,0.0,-0.46220477490853273,0.0,-0.08117437146482942,0.0,-2.2457352580709724,0.0,0.0,-6.512732632646401,0.0,0.1563100601401679,-0.4531343886467898,-3.3623447706967946,-0.2022289223366105
29,0.0,-0.17388936944314048,-0.11818989128198032,-0.08679610618674838,0.0,0.8560467405084791,-0.015087031317413402,-0.44413494975030715,-1.3784378948113507,-5.051620301270941,-0.531517415161062,-0.8192128010692663,-0.42533834338919707,0.8407055532146508
30,0.047087933827199,0.0,-0.3444434594070245,0.0,0.0,-4.11341358472584,0.0,-0.4776539366668473,-4.942987530895648,0.0,-1.5881076053129615,-0.5021155362929637,-3.1796843037057414,0.0
31,0.0,0.0,-0.15817122914247062,-0.2607626052978276,0.0,-0.18590384893650835,-0.19796740352928843,0.0,-1.816018886287619,0.0,-5.394199973525662,-0.9341066805985685,-0.48202093732736806,-0.16297966914109097
32,0.0,0.0,0.0,0.0,0.3334678918336973,1.027822687629464,0.3048089337072568,0.0,-6.418163341452431,0.44953200231251955,-4.7892863395805705,-3.981666183564439,2.129950011949168,-0.42224515864499423
33,-0.1892182944924552,0.0,0.0,0.6631305156051468,0.0,-2.2579214009648965,0.0,0.0,-6.9439532611672945,0.0,1.0028759351700662,-0.8243950805474487,-3.3095253912554856,0.0
34,0.0,-0.06253390463654274,0.0,0.0,0.0,0.9348809488574545,0.0,0.0,-7.605399181583309,0.0,-2.8239430591299426,-0.8939284627610729,-0.3778451728472625,-0.2695684372997409
35,0.0,0.0,0.0,-0.049320356602214385,0.0,-0.2457971364535409,0.0,0.0,-1.7212668737888295,0.0,-6.140125931328328,-0.7863309296599156,-0.6492900059535742,0.0
36,-0.004654430576868762,0.0,-0.2795359334652039,0.0,-1.074705171823374,0.0,0.0,0.0,-6.484103009914771,0.0,-2.5671438860762557,-0.6316948899759645,-0.8298685445986163,0.0
37,0.0,-0.8464746081677186,0.0,0.0,0.0,-0.16833084020939104,-7.790601113514919,0.0,-1.4535383367094763,0.0,-4.150365868881483,-0.6500024251733532,-0.03168248324012346,0.0
38,0.0,0.0,0.0,0.26068232165940586,0.0,-2.79012165804844,0.2850505174232776,0.0,-8.643026713691679,0.2851802692380234,1.0610123819932555,-0.8464257442430414,-0.5744866104351569,-0.1694361527113415
39,-0.7393731679786697,0.0,7.803752669783549,0.6031465715214654,0.0,32.258431088043494,8.547626778629947,0.0,110.0364129707199,10.015405649260998,56.1973423453193,32.72124139778583,39.40557136671333,-0.8188794934903285
40,0.0,0.0,0.0,0.6551040392503582,0.419960733137426,1.7520531726471056,-0.6192183322499858,0.0,14.909513074935552,0.0,1.5168250911364298,-0.7884215321749881,0.4659150869679447,-0.510884852897675
41,0.0,0.0,-0.3190605984672572,-0.12868803022852524,0.0,-2.0436847034912398,0.0,0.0,-6.307130690298817,0.0,0.0,-0.8503579208867347,-3.514323115258188,0.0
42,0.0,0.0,-0.13761710327690269,-0.09898682344229615,-0.36353877251436406,0.0,-0.21817401382618717,0.0,-1.2216402426445585,0.0,-1.5768545267767222,-0.9304158803947262,-0.5287390912475587,0.0
43,-0.09130416344500548,0.0,-0.13787941463339404,0.0,-0.155162116385311,-2.9049925673161154,0.37637807290259395,-0.23131953487060686,-8.351454813311626,0.0,-0.10836862774887777,-0.8783194045823294,0.5665265345788804,0.0
44,0.0,0.0,0.0,0.0,0.0,1.822367358775955,0.3940931642392383,0.0,-8.722652088850262,0.0,1.1644847858496217,-0.8082770323575093,-4.1620718713641,0.0
45,0.0,-0.44713113773377255,0.0,0.0,0.0,-3.9913526778284707,-0.38170882026440545,0.0,-4.852151835599591,0.0,-1.5004383370032013,-0.49831017590711113,-3.3832877668906463,0.0
46,-0.14465905941469007,-0.2804850999017141,-0.3076892175708425,0.0,-1.1724888258745647,1.1968590096956855,0.38290740866231265,0.0,-9.736791942245924,0.0,2.787730644429766,-4.944091497495348,0.7292372866485213,0.0
47,0.0,0.2084888747236846,0.0,0.0,5.315567626934154,47.23091018611059,8.312271207808578,0.0,110.10033711258427,1.2142120041791031,42.42539440873526,37.567974287547514,43.45102417667002,0.0
48,-0.04214278246323373,-0.0628243101091131,-0.2144558868668535,-0.20389638830671725,0.0,-2.5271198394948233,0.6119076351572538,0.0,-9.766129294584104,0.0,-0.26024809959218176,-1.0524550287886507,0.44711934840496603,0.0
49,0.0,0.0,0.0,8.900864980072654,0.0,45.00181424995334,3.675269805545497,0.0,122.18011671566731,0.0,34.332313001126494,33.32691692518583,32.04691721257129,13.963834670951996
50,0.07264283638581182,0.0,0.0,0.34989898034193745,-0.9006719282854863,-2.646482618912475,0.4761774165732482,0.0,-8.829846882048995,0.26776943799923547,0.7797824478993405,-1.013739294396597,0.37761238773764916,-0.14779923222899605
51,0.0,0.0,0.0,0.0,0.0,1.6369233277991686,0.0,0.0,-9.873534309321151,0.0,2.438221577931742,-5.2438524519214464,0.603703208242619,0.0
52,0.0,0.0,0.0,-0.13819763328037205,-0.05429464197749567,1.2576213560355924,2.0386720238658036,0.0,15.911446539741306,0.24476596438660003,1.9668397779454274,0.0,0.8089441133224149,0.0
53,0.0,0.0,0.0,-0.16064696038908374,0.0,-0.26397594119568335,0.0,0.0,-6.371324459630322,0.0,0.0,-1.0439054424194907,-0.678179298395738,-0.2646165572931931
54,0.0,-0.3491306220658448,0.0,-0.2623524678106559,-0.27187871326742474,-0.38135014786360166,0.0,0.0,-4.709094160878429,0.0,-5.154629860196202,-0.4289228129714502,-3.4501104460027836,-0.07300345342123293
55,0.0,0.0,0.0,0.0,0.0,0.8270233476174864,0.0,0.0,-7.44812874642334,0.0,-2.7059924531829527,-1.0302947413782553,-0.7409446760333527,0.0
56,-0.02182821360228182,-0.2109732051495597,0.0,0.8440648050643471,0.19173152170239138,-2.1892663613497962,0.7045976640803189,-0.4265535121228168,-7.122766274724182,-0.18238246245996237,0.870556510709739,-0.74679343749591,-3.5968235929931343,0.0
57,0.0,0.0,0.0,0.0,0.0,-2.5980393463248173,0.6623816579266151,0.0,-9.946746443926303,0.0,0.9775228978399473,-0.9966954600206673,-0.543876091557788,0.0
58,0.0,0.0,-0.4430275885283539,0.29268223294971607,0.2754860196115132,1.7033593880634195,0.4305396823730252,0.0,-10.262624876769964,0.0,3.1598118179961627,-5.518181401980734,0.9993686089233744,0.0
59,0.0,0.0,0.0,0.0,0.0,1.4442610854828144,0.0,0.0,-6.628333753913577,0.0,-5.1220926774057745,-3.7148838919858154,0.0,0.0
60,0.0,0.0,0.0,-0.1708869067525285,0.0,-6.493045792233691,0.8064149797893094,0.0,-6.637923813789477,0.0,-0.22549939951039288,-1.1628160829524727,0.42997066883405033,-0.47272813645403566
61,0.0,0.0,0.0,0.0,-0.7828272658542362,1.4866205805381023,0.0,0.0,-6.4451236946817785,0.0,-4.585010767160884,-4.02653573976584,1.7179020728922634,0.0
62,-0.17259387764458603,0.0,0.0,-0.6922147938707351,0.0,0.8586471544283626,-0.157930348755637,0.0,-1.683500054013353,-4.598896651204483,-6.502576030031935,-0.869782365310793,-0.1909428178528692,0.3408174345180903
63,0.0,0.0,5.432285453469376,0.0,0.0,50.97821861948263,7.180856106888669,0.0,106.77387715083962,0.0,50.780443384974205,40.55201709759902,34.547122208758424,0.0
64,0.0,0.0,0.0,0.0,-0.7233068366060893,1.1951823798263121,0.0,0.0,-5.7761070923102915,0.0,-5.280692099767387,-3.8730542188400783,0.0,0.0
65,0.0,0.0,0.0,0.0,0.0,-2.352384188105171,0.6791812695879236,0.0,-7.127451317642387,0.0,1.1609185003647708,-1.0379228574375765,-3.208777965108405,0.0
66,0.0,-0.2781486654665546,0.0,0.13171624070218968,0.0,1.9898620530696114,0.5503538380923843,0.0,-10.720855754267916,0.0,3.69289760579849,-5.501934577327438,0.7872541448450097,0.0
67,0.0,-0.11988893124434667,-0.10788968585838671,0.0,0.09335607535731302,1.0343835708981628,0.560340330790187,0.0,-10.560679947902399,0.0,1.4402578046300698,-1.1264249896879148,-1.0148141972530558,-0.15503718224772278
68,0.0,0.0,0.0,0.0,-2.3640247864970325,0.7198072838635099,-0.35466003985537586,0.0,13.57148444862661,0.0,1.9446722286661675,-1.036165237929084,0.6495112551420252,0.0
69,0.0,0.0,0.0,0.0,0.0,-4.238432755867807,0.0,0.0,-4.700825486865118,0.0,-1.800911665400788,-0.7264448726030848,-3.6427538928012293,0.0
70,0.0,0.0,0.0,0.0,0.0,-2.3353627762859848,0.0,0.0,-1.6763645922438917,0.0,-6.302997896806705,-0.4772529303311961,-0.03272750100924959,0.0
71,0.3952174515890349,0.0,0.0,-0.10244601724835344,0.0,0.0,-9.867952950629006,0.25068118284723145,-1.5876733261492575,-0.1752643536477477,-1.2826612023003583,-0.7678397064169883,-0.6179280687209225,-0.14665829180082923
72,0.0,0.0,-0.1914487563044025,0.6723459135957492,0.0,1.0710849958236075,-0.4535888413741107,0.0,-6.562911458316622,0.0,-5.36888065834647,-0.8097615882924964,-0.5041127663834271,0.0
73,0.0,0.0,-0.018903225973360804,0.0,0.0,44.679789749763344,8.425634481431942,0.0,99.81656901389235,0.0,44.417579868147754,41.35248803537689,38.511542470466765,0.0
74,0.0,0.0,0.0,0.0,0.0,-2.9350807230364238,0.6868751196968399,0.0,-9.225848269848322,0.0,1.1317893063654885,-0.7518600629626991,0.6013805648829909,0.0
75,0.0,0.0,0.0,0.0,0.0,-2.497784080585282,0.0,0.0,-5.4378563956368975,0.0,-1.925359297570341,-0.9457983559737384,-4.139463997965835,0.0
76,0.0,0.0,0.0,0.0,0.0,0.0,-0.22658315325459108,-0.08492880145576592,-1.940193959426886,-4.8979835861045,-5.5691725275986865,-0.47584856118584007,0.0,0.0
77,0.3727494355528922,0.0,0.0,0.0,0.0,1.353398611461663,0.37271686340416266,0.0,-9.305089608911846,0.0,1.4892952193796993,0.0,-8.521799378498047,0.0
78,0.0,0.0,0.07754607052767781,0.0,0.0,1.3072235345904684,0.0,0.0,-9.173207449282861,0.3087593714652703,1.494665703961802,0.0,-8.630319499576522,0.3612810830888602
79,-0.09822976500553247,0.0,0.0,0.0,0.0,0.0,0.0,-0.17001672851576935,-5.562234878044631,0.0,-5.091372339321371,-0.9810948813755312,-0.5313125872785722,0.0
80,-0.0690943451275059,0.0,-0.18813539984336458,-0.24593930677090192,0.0,0.0,0.46233851685800786,0.0,-1.6601692045394731,0.0,-6.607866334888664,-0.8550939469251455,-0.24830585228934687,0.0
81,-0.2591201120142797,0.0,-0.068451228176408,-0.1996407202465367,-0.20444862316906137,0.0,-0.12048972902275983,0.0,-2.030659873614278,0.0,-5.864178576721612,-0.6587209279185171,-0.49981057704004367,-0.04869525459581503
82,0.0,0.0,0.0,0.0,0.6398036644212759,1.2318056845484309,-0.7946826478786253,0.0,14.720132589140398,0.31427139322792286,1.5088884544676624,0.0,-0.019480231637786005,0.0
83,0.0,0.0,0.0,0.0,0.0,1.7875162155248763,0.7468224717725084,0.0,-4.873438121268416,0.0,1.7435855796160522,0.9785474997575482,-12.653724182472663,0.0
84,0.0,-0.3701419369457981,0.0,-0.28658768717546,0.0,-1.7850089263161948,0.0,0.0,-6.40666512969489,0.0,-1.7630152592752424,-1.3013519289532187,-0.02240846112872319,0.0
85,0.0,0.0,0.0,0.0,0.0,-2.548666386924991,0.4907249465803707,0.0,-8.479503210723125,0.0,1.1694253124944707,-0.9280317019571763,-0.8355203482852467,0.0
86,-0.6882995942490764,0.0,0.0,0.0,0.5808379484461694,-3.2702313008262225,0.0,0.0,-4.8490558960142245,0.6955817313971044,-4.367141854349535,-1.0154609755429114,-0.13402044372497635,0.0
87,0.0,0.0,0.0,0.0,0.0,1.1083287441099032,0.0,0.0,15.335576961208393,0.531636860678711,3.1441633578984045,-0.7720129714268997,0.22999755294186386,0.0
88,0.0,-0.30158772833170927,0.0,0.1460315986375462,0.21644526642139106,-0.10317157104523075,0.6959352725901139,0.0,-10.600254052277611,0.0,1.4092543831018336,-1.1567254961785962,0.5442644657856547,-0.12941996825395385
89,0.0,0.0,0.0,0.0,-0.7601930020289895,1.059397077112588,0.16240722850843436,0.0,-6.591897187032448,0.3789842102594658,-4.897549736328749,-4.217835986042761,0.5466143506813097,0.0
90,-0.08115724984725917,0.0,0.0,0.0,-0.7181916344530264,0.0,0.0,0.0,-1.7765700971509542,0.0,-6.674108086654927,-0.7767494216363895,-0.5993389283089829,0.0
91,0.0,0.0,0.0,0.0,0.0,-2.435481064157649,0.41846216211537524,0.0,-7.6513915038761215,0.0,1.234989306905148,-0.7824240760385237,-3.2244910433886993,-0.3850029564012285
92,0.0,0.0,0.0,0.0,0.0,1.0891716915943819,-14.218955688478506,0.0,9.053362314798889,0.0,0.0,-0.5346285427900348,0.0,0.0
93,0.0,0.32413053856628327,0.0,-0.27329556786673337,0.541550608506023,1.591857235732774,-0.20759507291321058,0.0,-2.182312524444919,0.0,-1.3022600217833415,-1.1468217499459548,-0.5925831140553253,-0.2651220764462554
94,0.0033904809989868667,-0.10435573667175824,-0.0978734911454815,0.0,0.0,0.0,-8.405361366726915,0.0,-1.9968046024136719,0.0,-1.8331561315105365,-0.929156831551893,-0.8786460418714555,0.0
95,0.0,0.0,-0.14306227585722375,-0.4024529986647254,-0.4640580412409703,-2.564761232470243,0.5106110264721524,0.0,-8.57770752769187,0.0,-0.12092206613555945,-0.9051983466238962,0.6079400457782285,0.0
96,0.0,-0.24519204717986268,0.0,0.1947342448921468,0.0,-2.239190248313599,0.515301583674376,-0.1485972574830359,-8.69417588287727,0.0,1.2580309141581603,-1.0831108209382785,-0.6191871832502182,-0.07018469149811857
97,0.0,0.0,0.0,-0.18498422850450183,0.0,0.0,-0.03694845853703046,0.0,-1.9320113942708668,0.0,-6.2558750108722725,-0.8090656709139271,-0.41227702259820376,0.0
98,-0.19982120097874567,0.0,0.0,0.022074867788689723,-0.26379858440749704,0.0,-0.13419010443123813,-0.23503108489709046,-1.508119991990414,0.0,-6.847455086740613,-0.7016861805558454,-0.5064210291337066,0.0
99,0.0,0.0,0.0,-0.10578989761729485,0.0,1.1982475721441528,0.7075930324953488,0.0,-6.5329657936061505,0.0,-4.6629721000107995,-3.583878433030227,1.9755396147234645,-0.35511666611023784
100,0.272570329581205,-0.07503811301752616,0.04042551065233102,0.0,-0.2428225144706131,-2.562452952613455,0.556491142615247,0.0,-8.486770442792748,0.17652012330340217,1.1508590900464721,-0.9512772086843846,-1.0208168416438426,-0.3307693308225481
101,0.4671213022575369,0.0,-0.5430871322254323,0.0,0.0,0.8877828584114544,0.36217012670285076,-0.23554941778104954,-6.579077900806606,0.0,-4.747611480824016,-4.451527791986976,0.6983346572387852,0.0
102,0.0,0.0,-0.18250999338415674,0.0,-0.1761944474796051,0.9487510187063819,0.5311076295591732,0.0,-10.057867319986938,0.0,-0.29703776360508893,-1.305848702480036,-1.109047110362102,0.0
103,0.0,0.0,0.0,0.0,-0.8977577330370217,1.092146086014211,-0.4684511766123783,0.0,14.109135379251969,0.0,1.6424232782181392,0.0,0.262809493963152,0.0
104,0.0,0.0,0.0,0.0,0.0,-4.614891491735518,0.0,0.0,-4.863633053288252,0.0,-1.4909686197343355,-0.4673576816471776,-3.6097692757640303,0.0
105,0.4739036433391348,0.0,0.0,0.0,0.0,1.2266667434446257,0.4128939418367299,0.0,-5.1793064128222595,0.0,-5.57476669798253,-3.912378007766419,2.458951040669683,0.32589629100732687
106,0.0,0.0,-0.10143615539047905,-0.28882539850732875,-0.4165877388249485,-2.87623397899053,0.4322172117808164,0.0,-8.358351185902599,0.0,-0.07837457173807685,-0.7062839481268631,0.4066885013591571,-0.07242415209325515
107,-0.05924893146996535,0.0,-0.29664158382330186,0.0,-0.2118060718580681,0.0,-0.05109615225841324,0.0,-1.926763830412403,0.0,-5.445100297018747,-0.9637639927209047,-0.655006211626942,0.0
108,0.0,0.0,0.0,0.40258944510151107,-2.6855077343600247,0.5307700359742036,-0.43711858239187684,0.0,13.4658419945983,0.19969535302818642,2.0622994438772864,-0.8333021714697804,0.42535736765901433,0.0
109,0.0,0.0,-0.334679599680789,0.0,0.4451461793853342,0.41814225391242504,-0.0038912725908290544,0.0,-1.6894810622157983,-4.7551988047263185,-0.7766838176570627,-0.7192984477192269,-0.46545831248043723,0.5339310738144247
110,0.23918252080388225,0.0,0.0,0.3330496716902118,0.0,0.8024129480571567,0.720627501988476,0.0,-7.327188831329881,0.0,-4.662709945511763,-4.358645259512644,0.0,0.33557982868355474
111,0.0,0.0,0.07030255521342621,0.0,0.0,0.0,-0.03425823589772259,-0.18394359013413464,-1.9848960499161512,0.0,-6.005419247326144,-0.7991008393171599,-0.39683574814293365,-0.25798007826558056
112,-0.13828648113487407,0.0,0.0,-0.32025884218025347,0.6923991532112437,-2.0189076540604063,0.0,0.0,-6.558954379269192,0.0,-0.48103718884443225,-0.8836824016110709,-3.454517264741776,0.0
113,0.0,0.0,0.0,0.0,0.0,-2.6781735323691267,0.8235978101673096,0.0,-7.1369097153835614,0.0,1.4087093446981833,-1.0215879621880806,-0.793510282024628,-0.1059242436408443
114,0.0,0.0,0.0,0.0,0.0,-6.319966798795615,-0.21220538894471855,0.0,12.411622289265843,0.0,3.2784429363397627,-0.607102395588285,0.8271451481675687,0.0
115,0.0,0.0,0.0,0.0,0.0,1.6538358048758548,2.3440977844975475,0.0,15.628081509062389,0.08173775449566101,3.6316943250620604,-1.2282600683797114,0.4983141562946223,0.0
116,0.0,0.0,0.0,0.0,0.0,43.7462242912342,9.213541109945393,0.0,107.93505968597081,0.0,49.373452336033715,37.993298256177845,47.019743366087454,0.0
117,0.0,-0.2574902536178548,0.0,0.0,0.0,-5.916495243666076,0.0,0.0,-1.1519988384919029,0.0,-4.5732422159250135,-0.5825369217680233,-0.6881215425898706,0.0
118,0.0,0.0,-0.28989684081626343,-0.22504395448718117,-0.25939133741678067,-2.914364248882861,0.39964435733973414,0.0,-8.285173221109208,0.0,-0.1921904078119283,-0.6986295677961607,0.40543380454654177,0.0
119,-0.14146674976726367,0.0,0.0,-0.2378895764927154,0.34439582915268235,-2.497551865375969,0.4291371939578155,0.0,-8.380830920590496,0.0,-0.15418128560049088,-0.9821451551413717,-0.9009817283892947,-0.10989190649327796
120,0.0,0.0,-0.13386195084509067,0.0,-0.5133746838678075,0.0,-6.076781078477452,0.0,-1.851709080100143,0.0,-3.960539595646889,-0.6601301357746223,-0.6152714903854335,0.0
121,0.0,0.0,0.0,-0.33599296540112,0.0,0.9456732613392429,0.0,0.0,-1.9434350239464004,-0.2999409646575888,-6.4805421314703056,-0.61529282415189,-0.2530694625824932,-0.18840475725422579
122,0.0,0.0,0.0,0.0,0.0,1.7769687743376967,0.36063776155449734,0.0,-10.338921713574836,0.0,3.534153023344556,-5.261752367324935,0.5982583740887772,0.0
123,0.0,0.0,0.0,0.44219508386759987,-1.1633371532588193,-2.1005629885969634,0.16003856949568007,0.0,-6.284033663710451,0.0,0.7798950923743186,-0.8581714834678011,-3.571087954268652,0.0
124,0.2564208972894728,0.2690645754511374,0.0,0.15825368690829755,0.518969661434658,1.4429541123704794,0.15152740528387287,0.0,-6.923862543594617,0.0,-5.049259452550193,-3.602927968000145,1.9817364449013208,-0.5742410321014866
125,0.0,0.0,0.0,0.0,0.0,-4.267131522467055,0.0,0.0,-4.93103793324908,0.021935061935558053,-1.8426146905833214,-0.9179239196272153,-3.0422234590502484,-0.11170482551455585
126,0.0,0.0,0.0,0.0,0.0,1.8077623593752161,-0.7063283767892692,0.0,22.308827555213533,0.5569668356486916,3.959359894619876,-0.6762827106166931,0.8744049064551156,0.0
127,0.0,0.0,-0.17431843963435956,0.0,0.0,-0.07621197193170115,-0.20665237734705832,0.0,-1.7795286210221355,0.0,-6.282649552705103,-0.6376837394072261,-0.6796987486882813,0.0
128,0.0,0.0,0.0,0.0,-0.9898324181458795,-0.22740612847063524,-0.34626530050217585,0.0,-6.615988735256564,0.0,-2.0509514966215896,-1.1144131007223947,-0.5268486867118174,0.0
129,0.0,0.0,0.0,0.0,4.002763473148548,48.404409146175354,-0.2860020457989805,0.0,114.54424524197238,0.0,47.0826764644826,36.49986321076622,44.57212087892208,0.0
130,-0.07561027531056475,0.5922909486622672,-0.09373739708888396,0.15692235338436156,-0.09220684281010771,0.0,0.0,0.0,-2.4743123079884253,-0.11807785439108898,-7.1126555973839,-0.4119878579981542,-0.5545877193389472,-0.19048584508301758
131,-0.22166872408513338,0.0,-0.30251990605929446,0.0,-0.201756648532895,-0.2804553635257865,0.8392029991040617,0.0,-1.8361672939028972,0.44576047797110885,-7.385326391531134,-0.7462607400528309,-0.42981489626262537,0.25272726572530146
132,0.34121923358071893,0.0,0.0,0.0,0.0,1.5932005357702153,0.199383301733838,0.4573186087572143,-10.005816389543917,0.0,1.4158863182039054,0.9353816768471002,-9.77264495936793,0.5323206458637095
133,0.0,0.0,0.0,0.0,0.0,-2.384613827993127,0.0,0.0,-4.259329374068434,0.0,-4.278820151395944,-1.2062678719457027,-0.7161855278328938,-0.20257363162757258
134,0.0,-0.2624736248847072,-0.3850197897365652,-0.1555263901469407,-0.08166513511201007,-7.446403300987969,0.049712546989411514,0.0,-1.7806865551102775,0.0,-1.0091043447710548,-0.8656420117613896,-0.06043561006116427,0.0
135,-0.08416296597590467,-0.19381495397354875,0.0,-0.15822109084335167,0.0,-2.7420775143278746,0.07780098913346656,0.0,-8.66378260754314,0.12549251221299684,0.0,-0.6773985344808118,0.4822657639667227,0.0
136,-0.17485652399681095,-0.22127490546895043,-0.1469977536581088,-0.35804780069582626,0.0,-2.8430190936999242,0.7723067465624887,0.0,-8.481743336047849,0.0,-0.12093174555665478,-0.9241688019594589,0.6648348126896497,0.0
137,0.0,0.0,-0.10624032757114993,0.0,-1.1056709845069295,-2.736162438637645,0.0,0.0,-8.001377385048977,0.0,0.0,-1.0162202582339213,0.5644969911906141,0.0
138,0.0,-0.3164108084214101,0.0,0.0,-0.6486393102381829,1.046671173112034,0.0,0.0,-6.868822650590701,0.0,-4.634735462840354,-2.7662210921943675,2.276138564038801,0.0
139,0.0,0.0,-0.25284901669933024,0.0,-0.6067944956396532,1.4182227039325648,0.0,0.0,-6.018015553998931,-0.4563638120149127,-5.584057814397992,-3.5432355351359544,0.0,0.0
140,0.19294558987595378,0.0,0.0,0.0,0.0,-2.7632648058379212,0.5106808864352765,0.0,-6.96441664072451,0.05991509175232945,1.5763599987460486,-1.2352427133863673,-0.8807759876015595,0.0
141,0.0,0.0,0.0,0.0,0.1404212972714105,1.0770122086317335,0.5767297331650063,0.0,-10.4736885679371,0.0,1.2366208812898734,-1.399851134638011,-1.1136415703010059,0.0
142,0.0,0.0,0.0,0.0,0.3534430888559994,0.0,0.4549035762229394,0.0,-1.9948336861157139,0.0,-6.940966812548273,-0.5629458257875966,-0.40667117551206644,-0.3284148720157045
143,0.0,0.0,0.007155397116062723,0.0,0.0,-0.3148335388625698,-8.90279704365424,0.0,-1.9524089910743827,0.0,-3.2727225698837454,-0.23048794065982747,-0.36888093763683827,0.0
144,0.0,0.0,-0.11917253998874733,0.0,-0.4990009551927299,0.0,-0.22912527657521542,0.0,-1.6936320049903522,0.0,-1.518435921695465,-0.7440264733583204,-0.6254804631086186,0.0
145,0.0,0.0,0.0,0.0,0.6195400747749389,2.990182846154669,-0.8815971599899264,0.0,36.96843141684041,0.0,8.23177088910571,-1.0699328783224544,2.8302653255492416,-1.5055928114365926
146,0.0,0.0,0.0,0.0,0.45267792923318123,1.3269994469377013,2.049398871279513,0.0,16.377823888160982,0.0,3.2498411525034374,0.0,0.4269260849713419,0.0
147,0.6178331520677531,0.0,0.0,0.0,0.0,-3.2186071422916323,-0.8214310846602579,-0.2904018624685776,14.180702417568128,0.0,3.13324826744362,-0.4783064246425335,0.7799629358118434,0.0
148,0.0,0.0,-0.14243413532298743,-0.20848078521011126,-0.06938199080669438,-0.24702159982218985,-0.21321579490379694,0.0,-6.517222067836982,0.38760250759197756,-2.881615416568474,-1.1017777614375515,-0.38721527758237784,-0.013200157309578131
149,-0.25911867649762144,0.0,0.0,0.0,-0.3338314024373137,1.1353586086107903,0.4102884485284104,-0.14317675052980894,-6.389883470791714,0.0,-4.435341951660497,-4.02908314254716,0.0,0.0
150,0.0,0.0,-0.20268288999428163,-0.22770277769919445,0.0,2.866402342148262,0.0,0.0,-1.9479719258435164,0.0,-1.4709857527005112,-1.1532279946181645,-0.5413639156027679,-0.08572849983511466
151,0.0,0.0,-0.4632825994509515,0.0,0.0,-3.2854784928785747,0.0,0.0,-3.9736824161805604,0.0,-4.220758410909537,-0.49639846010145305,-2.5402558046575354,-0.28367785602394413
152,0.0,-0.23722876018459094,-0.28473153794650635,0.3711941635321063,0.0,-0.1499378753808334,0.615097074136937,0.0,-7.200854115228166,0.0,-2.8436069743012324,-0.6908522013947924,-0.7613149140731357,-0.179571824605123
153,0.0,0.0,0.0,0.0,0.0,-2.2866099103014257,0.0,0.0,-6.72720983078426,0.0,1.1531878769178232,-0.2521702815044522,-3.723811366937939,0.0
154,0.0,0.0,-0.3160821575525574,0.0,0.0,0.9491810419616566,0.0,0.0,-6.540223223311942,0.0,-5.627052987278526,-2.8895384803970856,0.0,0.0
155,0.0,0.0,0.0,0.23358447146286032,0.0,1.7117086353472613,0.3191170799460612,0.0,-10.905547246286918,0.0,2.2924457084858183,-5.150970202077472,0.7872538682251466,0.0
156,-0.21920571133650224,0.0,0.0,0.0,0.0,-4.048708066303284,0.0,0.0,-4.775636080981126,-0.15499882883915417,-3.4318717982574167,-0.2448142812895382,-2.3882992731955337,0.0
157,0.0,0.0,0.0,-0.0935504236644622,0.0,-3.6009415294476206,-0.43250654719974513,0.0,-3.632897899589933,-0.37369047036439706,-3.827495094213335,-0.6309002735490772,-2.672432520405188,0.0
158,0.0,0.0,-0.30287574705776477,0.0,0.0,2.5558099754458596,-0.21234446695499964,0.0,-1.9629712194026052,0.0,-1.4534191468220814,-1.1415442030130438,-0.2459166063406535,0.0
159,0.0,0.0,0.0,0.0,0.20452007713921372,1.9110400569257564,0.6117639133493578,0.0,-10.173839232539056,0.07305320755740308,2.5789817573887714,-5.370968753467794,0.8079966116383548,-0.5649119688548261
160,0.0,0.19249820724764177,0.0,0.0,0.018186219772515777,-2.29670143898457,0.779995261032727,0.0,-7.100783046786745,-0.1803929505517874,1.1768504677938245,-1.152976092985801,-3.2853615102265508,0.0
161,-0.27112594659988964,0.0,0.0,-0.6727881538063958,0.0,-2.7532304847163136,-0.02480652525133209,0.0,-4.142445486708677,0.0,-4.0860660029461755,-0.7300070572543209,-2.583445621678015,0.0
162,0.0,0.0,-0.09173071699450286,-0.356302224376825,-1.5785675601407125,-0.17920280342785944,-0.12533792587324366,0.12013631264395963,-2.2076182424065958,-0.13419899617821196,-5.73933741589045,-0.3595639545599667,-0.3528460992211535,0.0
163,-0.07537169276483477,-0.19615908214114536,0.0,0.5116442756251582,0.0,-2.3967546026162823,0.6298345272464462,0.0,-10.129589861132054,0.0,0.9274855422602337,-0.978709703607172,-0.7004474396296587,-0.2794590004786297
164,0.0,0.0,0.0,0.20880909285488336,0.11957863685484682,1.554805016350378,0.2498778167963449,-0.18355261272197865,-10.222364692673574,0.0,2.7647284755236843,-5.332726891821496,0.9691586043107634,0.0
165,0.0,0.0,0.0,0.0,0.0,0.0,-0.26739245958777547,0.0,-2.09546295390842,-4.467424593937503,-6.487259204592222,-0.42550778358566,-0.2589151125185687,0.3507589758833589
166,-0.19324779379010337,0.0,-0.2889122139074374,0.0,-0.22444494643332424,-4.046408377406475,0.0,0.1597922080726768,-5.270346180852771,0.0,-1.4498705117736268,-0.3554080144219589,-3.417723619363583,0.0
167,0.0,5.768744165322914,8.57080317226692,0.0,0.0,49.95964353402684,4.598884478628577,0.0,120.57079085594428,-2.113336028145511,48.90934260453872,28.088516787592653,30.927929475274027,0.0
168,-0.20497836343148057,0.3372591225798607,0.0,-0.0894584321111469,0.0,0.7484909017797757,0.8196950719645844,0.0,-1.8167370613961653,0.0,-1.3284437328619334,-0.9013990421537259,-0.8440081997430848,0.0
169,0.0,0.0,0.0,0.0,0.0,0.0,-20.192501392616247,0.0,6.581259681871825,0.0,0.0,-0.7219559457865283,-0.5597863826315042,0.0
170,0.0,0.0,-0.12252645775829585,0.0,-0.4848959440084668,-3.1267089451126573,0.0,0.0,-3.939057474764236,0.0,-4.313192581873237,-0.7008476815239053,-2.351648069350654,-0.22466625119091432
171,-0.18303746871395532,0.0,0.0,0.0,0.0,0.9376329286661216,1.2433732393077577,0.0,-7.588386881954397,-0.39714050969216164,-4.093718356986534,-3.905092450114438,2.0877073132475914,0.0
172,0.0,0.0,0.0,0.0,0.0,1.1211661000819606,0.5548155899898226,0.0,-10.632483222601428,0.0,1.3172385228712624,-1.3575291701102064,-0.9596049727495028,0.0
173,0.0,0.0,-0.09096025267193131,-0.14486297498000011,0.0,0.0,-0.05418322343233495,0.0,-1.8222389185058834,0.0,-5.79215146404607,-0.9183829840076294,-0.7693514161425536,0.0
174,0.0,0.0,0.0,0.0,-0.4220133302866142,-1.589608519883789,-5.526153804357618,0.0,-6.1446359351009425,0.0,0.7157050341619999,-0.6754612278876149,0.0,0.0
175,0.0,0.0,0.0,0.0,-0.20765842791304223,-1.9502811549888097,0.5507415047391495,0.0,-8.263650627032796,0.0,1.2968112198728328,-0.9533811280560034,-3.305957818642643,-0.17888171674311693
176,0.0,0.0,0.0,0.0,0.0,-2.6418672453027967,0.5614497003410709,0.0,-9.289246120020794,0.0,1.1073190615956838,-0.9828908601918458,0.7605237206064892,0.0
177,0.0,0.0,0.0,0.0,0.0,1.5960922655973653,0.5972958958124656,0.0,-10.320925385761836,0.0,2.814743121053655,-5.3685420258220145,0.8029280780121848,0.0
178,0.0,-0.2060138576642352,0.0,0.0,0.0,-4.434124329585698,0.0,0.0,-5.383191003167372,0.0,-0.9558014235687597,-0.1905573306554622,-3.5419984111552196,-0.3743292775229268
179,0.0,0.0,0.0,0.0,0.0,1.298839606907505,0.0,0.0,14.231926145557818,0.0,3.649105252918352,0.0,0.2674636650657618,0.0
180,0.0,0.0,-0.0510486893637454,-0.3010739238377338,0.0,-4.052274568542334,0.0,0.0,-4.193403638700245,0.0,-3.974215182643242,-0.2570261141668322,-2.2465420299449104,-0.18883061123471556
181,0.0,0.0,0.0,-0.2558208969517444,0.0,-2.3852904097059606,0.521668027879273,0.0,-8.097748244125915,0.0,0.0,-1.4184478601036412,-0.9088181485384244,0.0
182,0.0,0.0,0.0,-0.24917189532685757,0.0,0.0,0.0,-0.2691040634951616,-1.9660224558564436,0.0,-6.080081772496002,-0.7621859204401282,-0.29309246005764145,-0.05745172342617977
183,0.0,-0.15530439668759888,0.0,0.0,0.0,-5.580718636650604,0.0,0.0,-6.562872883474338,0.0,-0.2105181663182444,-0.7948901941229423,-0.882250012181478,0.0
184,0.0,-0.228703642691512,-0.02523085076474274,-0.33325861810932755,0.0,1.132638468163448,-0.11712655526942051,-0.1544717291969927,-1.8679470809266978,-4.68072979065985,-0.445986230097577,-1.1991288503180293,-0.40450818257016685,1.010903447917162
185,0.0,0.0,0.0,-0.19133011567288605,0.0,1.2657763226124166,0.0,0.0,-2.264279832315499,0.0,-6.475366045568225,-1.043335866829205,-0.46246933035138227,0.0
186,0.0,0.0,-0.06442359114170015,-0.18633871686400427,0.0,0.0,0.0,-0.2300361892095717,-2.0354947429680283,0.0,-6.217147915305583,-0.6824278604430924,-0.1896400176810511,-0.07160125748538526
187,0.0,0.0,0.0,0.0,0.5006814275844711,1.2076505440233904,0.1481289721328478,0.0,-6.345557734161648,0.0,-4.866644752064355,-3.8438508887222778,1.840249760195828,0.0
188,0.0,-0.13570142899681947,0.0,0.0,0.0,-0.14190916577276713,0.0,0.0,-5.869367533878317,-0.00551828957854017,-5.239161453288131,-0.6271170861672566,-0.3566721997425404,-0.07228014188327059
189,0.0,-0.19338685860054072,0.0,-0.08749072038333772,0.0,-7.521973715679858,-0.254922426574141,0.0,-1.868920370544867,0.0,-1.246284173513363,-0.7816652196938074,-0.04260073059275449,0.0
190,0.0,0.0,0.0,0.0,0.0,1.3452647788227252,0.0,0.0,14.994718660830308,0.2554268743466037,1.0682909229999416,-0.6989215233821859,0.6003261055136839,0.0
191,0.0,0.0,-0.1280706679255621,-0.1852902109994794,-1.600894516758677,-0.0038431778954270968,0.0,0.0,-1.491924281516681,0.0,-6.842804280584082,-0.34647147928863653,-0.7852284586053848,-0.04295515050788268
192,0.0,0.0,0.0,0.005047578354232307,-0.3289450727880281,0.0,-0.03508597691386628,-0.014276328825522322,-1.3010824135892747,0.0,-1.7032025272405402,-0.7114618844005727,-0.6820254937796268,-0.3049343349401177
193,0.0,-0.17071885978461943,-0.30204110180990407,0.0,-0.03186840062193497,0.0,-0.11904866972668504,0.0,-1.941573781347996,0.0,-6.7019016933487165,-0.6671946154952302,-0.24749434724701835,0.0
194,0.0,0.0,0.0,0.0,0.0,-0.9383401871015521,0.0,0.0,-6.803078551339719,0.0,-1.906207872684201,-1.1515090909111036,-3.9276768371624744,-0.18091545390665686
195,-0.15752159702077728,0.0,0.0,0.0,0.0,-2.8429396232618362,0.46199372825238205,0.0,-8.36269465560431,0.42024804997616805,1.1138827515428904,-0.9712968606654666,-0.8411719921543792,0.0
196,-0.12760113905451065,0.0,-0.09681616230937928,0.01156400557657955,-0.07672233615645752,0.0,0.0,0.0,-1.6858000542794336,0.0,-1.646628657148209,-0.6353626267700823,-0.6557882046849484,0.0
197,0.0,0.0,0.0,0.0,0.0,-2.104659683239712,0.0,-0.035987007278433805,-1.2864116266243573,0.0,-6.2513145439211995,-0.961732111080929,-0.18460072453239462,0.0
198,0.0,0.0,-0.38677778037835253,0.0,0.38485299288611774,0.9712426322305121,-0.5004612910935133,0.0,-1.6979841520107577,-0.33561979920589957,-1.1733889902965164,-0.9680368155016468,-0.5554755475061892,0.0
199,-0.06708202771838945,-0.17744696727014198,0.0,0.37127457372752426,0.12863009537508874,-0.26322501058508996,0.38867691505146995,0.0,-9.994020849591392,0.0,1.3013681770732202,-0.9386798248070356,-1.0137879100604685,-0.07554863294749659
200,0.0,0.0,-0.29544991636290163,-0.35496866755049483,0.0,-0.3791886321318385,0.0,0.6590785398388377,-7.06188459832181,0.0,-2.26168164335688,-0.9899683051314998,-0.4939449661566009,-0.20472811282000158
201,0.0,0.0,0.0,-0.49556495821728097,0.0,-3.944243279729416,0.0,0.0,-5.412723748887982,0.7011423134162973,-1.5013832141402563,-0.7311726952309687,-3.7304293146654306,0.0
202,0.0,0.0,0.0023672109421944334,1.09392795688997,-0.40293783849975384,-5.134707056268839,0.6836882096570797,0.0,-3.28063848555394,0.0,-2.2564672524317357,-0.6662900899104268,-4.418607429439653,-0.4833148526115423
203,0.0,-0.2089366981010663,0.0,0.2039142785312924,0.0,-2.3833432860622974,0.47789499892457066,0.0,-8.622325274580172,0.0,1.201433984229256,-1.080819158145089,-0.5029033638868086,-0.23437017050663478
204,0.0,0.3977083322259566,-0.11024771674624344,-0.16503492467368366,0.0,-2.8661720536163,0.38589054671980916,0.0,-8.560137920240393,0.0,-0.18241595198427032,-1.0965501870831347,0.5249409661041567,-0.16187949253734324
205,0.0,0.27646263809463134,-0.27582801851878236,0.0,0.2643608452999262,1.0067436969411498,0.8552592220280257,0.0,-1.5321937187052634,0.0,-1.6535864726342835,-1.1003675378260538,-0.7552456061171196,0.0
206,0.0,0.0,-0.3358038147165461,0.0,0.0,-2.562162484404588,0.7144627430735984,0.0,-8.493119274565304,0.0,1.1538342886730364,-0.9327464980929703,-0.5955031159028827,-0.18320151824991449
207,-0.27393918561349123,0.0,-0.11426461945792245,0.0,-0.09929269636882287,-5.6629756785632575,-0.1664747499248916,0.0,-0.8396586461659747,0.3050364531605173,-5.072642906392243,-0.7203433434100797,-0.6000485955015318,0.0
208,0.0,0.0,0.0,0.0,0.0,1.2670115666914556,0.0,0.0,-6.786128533478074,0.0,-4.481177761543718,-3.7590548367099865,2.1302963532570924,0.0
209,1.132277420852926,0.0,0.0,0.0,0.0,-4.342237616396643,0.0,0.0,-3.901361094282803,0.0,-4.251237155798615,-0.622136776445922,-4.019715290375887,0.7404952334858255
210,0.0,0.0,0.0,0.1503650512013568,0.10514722388541742,2.129023995744906,0.5645995769761027,0.0,-11.939783358931898,0.0,1.4890700510102954,-1.3997706259711018,0.5069978502809329,-0.0641645505336843
211,-0.14139407975116924,0.0,0.0,-0.14361951152442742,0.0,-4.94080152868511,0.0,0.0,-1.9925907692987566,0.0,-4.900317805008157,-1.25906205705654,0.13318178308646544,0.0
212,0.4554100628075295,-0.19313335645163932,0.0,-0.3308202681665744,0.7308795291490409,0.0,0.0,0.0,-2.2021003819049163,-4.843857118981096,-6.340990058664448,-0.8068101972941832,-0.13651391624972042,0.0
213,0.0,0.0,0.0,0.0,0.0,-2.696659450298044,0.3109827065153805,0.0,-6.793214451456951,0.0,1.0345565863102357,-0.7939618190485813,-3.5047935193566966,0.6064764347244012
214,0.0,0.4513697453110008,0.0,0.0,0.0,1.750927930892209,0.0,-0.38951045206668544,-9.781108663078808,0.0,1.6162335858997254,0.5889447607403349,-8.540607935852924,0.0
215,0.0752663824778832,0.0,0.0,0.38116173778753026,0.0,-2.992338499784286,0.5316619219245684,-0.1883485667911522,-8.96896286851085,0.0,1.0819685590222479,-1.002411405744915,0.5972909966467821,0.0
216,0.0,0.0,0.0,0.0,-0.26118647122443095,0.0,-0.313205478214164,0.0,-1.6048408018804838,0.0,-1.1553867522924497,-0.7512115698503847,-0.6424714651336956,-0.01987746991003192
217,0.0,0.0,0.0,0.0,0.0,-2.5315019796419085,0.453920979805142,0.312105217510001,-7.117503619041143,0.0,0.9730897196817381,-0.7009534218225602,-2.8734282268568307,-0.3523421822446924
218,0.0,0.0,0.0,-0.43383699738638626,0.0,-2.9007092549897484,0.31762100423704354,0.0,-8.346533453010966,0.0,0.24843793023123695,-0.9610109306453509,0.3277991989565576,-0.08566589922383194
219,0.0,0.0,0.0,-0.18006832166223238,0.0,0.0,-8.094883134786327,0.0,-1.4174623163594273,0.0,-3.761010167918996,-0.76628829399152,-0.8152633899370372,0.0
220,0.0,-0.15447268395615232,-0.1406578865835577,0.0279855610843045,0.0,-2.9164512466206096,0.6995798934660558,-0.19370304479773193,-7.247427384083882,0.0,0.0,-1.0039482056176428,0.7179709578418585,0.0
221,0.0,0.0,0.0,-0.03171574285502654,0.0,-0.5498153990857233,0.0,-1.0632284938199934,-4.637979097626653,0.0,-5.0115328744341525,-0.6878782612846237,-3.0983228153714517,0.0
222,0.0,0.0,0.0,0.0,0.0,1.4102879896203129,-1.0280508013400376,0.0,15.490984269507637,0.0,3.7197086968919426,-0.6084206781395942,0.4325632005009723,0.0
223,0.0,0.0,0.0,0.0,0.0,-2.513454989619972,0.673409893684177,0.0,-4.518806427323176,0.0,1.7247982581047516,-0.9990012257498306,-0.4029310748525674,0.0
224,0.0,0.0,0.0,0.0,-3.0947105188251296,0.9919478834665763,0.0,0.0,12.99642776919745,0.0,3.866282070179878,0.0,0.0,0.0
225,0.0,-0.5569882677163145,0.0,0.0,0.0,-2.6378057895681213,-0.11923640705908412,0.0,-3.831189375302614,0.0,-4.832905064670937,0.07420900222525262,-3.359999376869302,0.0
226,0.0,0.0,0.0,0.0,0.0,1.1646539106140923,0.5842069591841064,0.0,-9.006654817966503,0.0,1.6396526218922447,0.0,-8.568439189202847,0.0
227,-0.2958028361385905,0.19714936714425724,0.0,0.18806589011738228,0.0,-2.831192505168051,0.1451516224498639,0.004868131310345358,-10.207296888202473,0.17990260197888075,1.0716778889996466,-0.9748203982661803,0.3839248469903467,0.0
228,0.0,0.0,0.0,0.0,0.24976820638423725,0.6644523400021125,2.3572467586809083,0.0,17.030805398319885,0.19399826710170842,3.6971641565986353,0.0,-0.3097677540013315,0.0
229,0.0,0.0,0.0,0.21569572407772508,0.0,1.123813795225404,1.294093557354266,0.0,15.634992453130545,0.37613933126250565,1.5158651161830505,0.0,0.625975721047972,0.0
230,0.0,0.0,0.0029045923848478594,0.0,0.0,-0.39182553828867484,0.0,0.0,-5.21972408635906,-0.25790417167038715,-5.488812305235352,-0.3915217021354831,-0.5119956813370141,-0.1715196675002595
231,0.03785153853868106,-0.1648635252413806,0.0,0.3221769853124865,0.0,-2.91863646215426,0.41722785586694755,0.0,-9.140998641742506,0.0,1.3668876250615911,-1.0125602544926418,0.60820313587889,0.0
232,0.0,0.0,0.0,0.0,0.0,0.9966153115740521,0.0,0.0,15.621742636233284,0.0,3.5721809693915763,-1.1076493203872353,0.22682986978033526,0.0
233,0.0,0.0,-0.02889363448846052,0.0,0.0,-3.5072772237862404,0.0,0.0,-4.517138117646472,0.0,-3.9618936186597,-0.5058491232874825,-2.7432906488616773,0.0
234,0.0,0.0,0.0,0.6294081287607405,-0.047817371254343044,1.6609870379123848,-1.230595286279236,0.0,21.926951650481342,0.384266586076798,2.044882615841617,0.0,0.4470567898671618,0.0
235,0.0,0.0,0.0,0.0,0.36108887458148275,0.6247444501961217,0.8915052803254696,-0.24678443598681543,-1.8779186908279137,0.0,-0.9374446939479489,-1.1044477385995946,-0.6251379971785704,0.0
236,0.0,0.0,-0.1730791146337437,0.0,0.0,-0.3301646716254802,0.0,0.0,-5.522703521547053,0.0,-5.230276077264015,-0.7659525308143686,-0.41844412557996336,0.0
237,0.0,-0.28285644415438593,0.0,0.0,-1.371906104453549,1.6750398937423192,0.4139359669794054,0.0,-9.707124714150218,0.3666087717319453,3.268991695918049,-5.752995024782582,0.8278454407146452,0.0
238,-0.17706427638599265,0.0,0.0,-0.13270567052281024,0.0,0.0,-0.12318827729339432,-0.21711364515262233,-1.6297551865936788,0.0,-1.6640493100209963,-0.6808735833552368,-0.12343005918090899,0.0
239,-0.20968488463624668,0.0,0.0,0.0,-0.22405543542847184,0.0,0.0,0.0,-1.9725764530301562,0.0,-5.637560258173675,-1.096456978523765,-0.5932692132998412,-0.10314022764370812
240,0.0,0.0,-0.303471320967442,-0.23283964989686723,0.0,0.0,-0.27184817725406085,0.0,-1.1345607368695036,0.0,-1.437473499885975,-0.9761887729661085,-0.556773016986484,0.0
241,-0.28370755070441245,0.0,-0.12992535008256345,0.6625631341960387,0.0,0.681437658690673,-0.15139461126267006,-0.19997077140189212,-1.7558965658491017,-5.104046610622939,-0.9277546904004037,-0.7508982115966845,-0.4487659023204955,1.047052708088069
242,0.46246412710271073,0.0,-0.11745267842267917,0.0,0.4271206525501825,-12.276719855157149,-0.4352944856608405,-0.34106343721157667,9.417302160707829,0.0,3.1135555508094894,-0.7493019872647456,0.3287976059974603,-0.27253967306471977
243,0.0,0.0,0.07739910263627081,-0.04763249146479076,-1.1488951776651,-2.047049624727471,0.3932410083694542,0.0,-6.252417125180124,0.0,-0.21246435608914727,-1.1338293396326042,-3.4945397838735257,0.0
244,0.0,0.0,0.0,-0.36915121377716265,0.0,-2.4398165328530372,0.42935136849620825,-0.2071898077827239,-6.5104680025554265,0.0,-0.03385453442261088,-0.6802170654062856,-3.3518992703297243,0.0
245,0.0,0.0,0.0,0.0,-0.31298384405318963,-2.2808069793896064,0.0,0.0,-6.131188939673903,0.0,1.0047601146762395,-0.7472760514838954,-3.5934086604642186,0.0
246,0.0,0.0,-0.22575764741249343,0.0,0.0,0.0,-0.2220122896060475,0.0,-1.8855916222260778,0.0,-6.727799084963956,-0.6734806455120507,-0.353751063908307,0.0
247,0.0,0.0,0.0,0.0,0.0,0.0,0.0,0.0,-2.143423269476567,0.0,-0.8508581683721657,-0.8483455341975152,-1.0068581685418851,-0.07423960668703877
248,0.0,0.0,0.0,0.0,0.0,1.2153947050964122,0.3372926277028905,0.26607261341173993,-9.3158999063612,0.0,1.394702424110486,0.5627243958570471,-8.739441375654865,0.0
249,-0.3662407384875386,0.0,0.0,0.0,0.0,-3.996461549881575,0.0,0.0,-4.901664795800327,-0.5215572770314121,-1.432793543879713,-0.7643963784492209,-3.1034551663468175,0.0
250,0.0,-0.1001788428902115,-0.21901332454740974,-0.37227634089399153,-1.2007967688741545,0.0,0.0,0.0,-1.6943644867544858,0.0,-1.3517713456136526,-0.908058928514361,-0.6750510719744156,0.034716065546300356
251,0.0,0.0,-0.5248265316964039,0.0,0.0,-3.6044661158520825,0.0,0.0,-3.253798004651596,0.0,-4.638231906109254,-1.092791185769184,-2.1494202961240365,0.0
252,-0.3018816077825477,0.0,0.0,-0.3510502755958935,0.0,-2.8575741989101617,0.40894352879114715,0.178628054631794,-7.114393623624647,0.0,0.0,-0.970416796542783,0.7966208797657313,0.0
253,-0.1402559732022537,-0.16934083088228924,0.0,0.0,0.0,-2.182198840170545,0.0,0.0,-9.395009491844196,0.0,-0.2714089413775227,-0.614678926391905,-0.8689534468632916,-0.2129094044456945
254,-0.13623616664280538,0.0,0.0,0.0,0.0,-2.554889692396071,0.0,0.0,-8.746289946221664,0.0,1.1476425492372833,-0.5141570629610868,-0.32764106983135477,0.0
255,0.0,0.564605904319347,0.0,0.0,0.0,-5.1120633194366105,0.0,0.8563890339056742,-6.238790031740289,0.0,0.6067118982481903,0.0,-5.660247667595746,0.0
256,0.0,0.01923147340496767,0.0,-0.3419720415567581,0.0,-1.8334533965685722,0.0,0.0,-6.705514979796822,0.0,-0.21091566866127165,-0.5158765004845911,-3.5747439449677145,0.0
257,0.0,0.13821415956128222,0.0,0.2655479341181807,0.10725300156591826,-2.722061025029711,0.4970128110504171,-0.15846868366131073,-8.785524446751293,0.0,1.289526872930933,-1.1090145669585854,-0.6540574456415307,0.0
258,0.0,0.0,0.0,0.0,0.0,1.5948218607889721,0.0,0.6404078921459861,-9.558922989112052,0.0,1.4693571365083031,0.0,-8.399715085556515,0.0
259,0.0,0.0,0.0,0.0,0.0,1.3992252582148819,0.0,0.0,-6.212059003694764,0.0,-4.527111110156589,-4.914397710352926,0.3621991013298871,0.0
260,0.0,0.0,0.17081564249171688,0.0,-0.6522132904251179,-4.190511498241014,0.0,0.0,-5.467590523363666,-0.4207331227628739,-1.5266611580128462,-0.2604810652919429,-2.8479849734759366,0.0
261,0.0,0.0,0.0,-0.21688383890915652,0.0,1.5445805832493216,0.36521218817280054,0.0,-6.923787569893613,0.0,-4.447070768365878,-4.879959876335805,0.0,0.640217716951323
262,0.0,0.0,0.0,-0.010484950172048976,0.0,-2.2604238401774945,0.0,0.0,-9.01853813567931,0.0,-0.372842633000298,-0.908014322502324,-0.734479320257245,0.0
263,0.0,0.0,0.0,0.3110609277296383,0.0,0.7485755230992075,0.0,0.0,15.011397151034185,0.0,1.7847850030301087,-0.6391115209454041,0.4650636216579507,0.0
264,0.0,0.0,0.0,-0.24819719412073482,-0.2989084606269907,-0.5535191013251364,1.2719047045013934,0.0,-5.972623906558987,0.0,-4.926095913204064,-0.9990324471053755,-0.6913081768211189,0.0
265,0.0,0.0,0.0,0.0,0.0,-6.465178677975501,0.0,0.0,-7.256493669137742,0.12262038742008212,0.7433411903167091,-0.7021511274462298,0.3549461323966341,0.0
266,0.0,0.0,0.0,-0.3378704850860723,0.0,-2.3415334808736157,0.4646771628986883,0.0,-6.172568980068434,0.0,-0.0771412879800506,-1.0086158054099759,-3.6470697400641328,-0.07636705187993442
267,10.5994339896708,0.0,9.832127648975195,-11.068502280822045,2.7109689052284835,52.39915250971869,3.268862161645494,0.0,109.02342389356315,7.483083660154328,37.61963646559829,36.26997274176125,37.89251848081517,0.0
268,-0.10771686326820323,0.0,0.0,-0.09848864848461059,0.0,0.0,0.0,0.0,-1.692382163079188,0.0,-6.4073064690371755,-0.7176331425978376,-0.5686039473193869,0.0
269,0.0,0.0,0.0,-0.3524035119061857,0.0,-2.6916845797594746,0.6395658707557574,-0.10064763193986836,-8.793224042410277,0.0,0.0,-1.06722627462511,0.4583877894007582,0.0
270,0.32483714541710373,0.0,0.0,0.0,0.0,1.3029433655535758,0.30212919482647393,0.0,-8.419746668272658,0.0,1.2088505430976575,-0.9960163890660407,-4.075371377820929,-0.2060489519710469
271,-0.4618055043266569,0.0,0.0,0.48502078027079376,0.0,0.647583855427504,0.0,0.0,-6.3635047300185885,0.0,-5.105704735727809,-3.837159218432067,0.6145203149844711,0.0
272,0.35018702694087755,0.0,-0.15015761143667794,0.19144973960365697,0.09386354952644993,-2.447253639255708,0.3068112259137603,0.0,-8.738426037119856,0.0,1.0931989781193652,-1.171999222669724,-0.500712677661058,-0.15853272077678504
273,-0.2284307314617262,0.0,0.0,0.0,0.0,0.042478369268257765,-8.139636275031744,0.0,-1.6532987808836417,0.0,-3.9371811274144086,-0.6393434809793597,-0.4795635981529198,0.0
274,0.0,0.0,0.0,0.425219908056557,0.0,1.3303322566518927,0.0,0.0,-7.80420496058186,0.0,1.7999661613292353,0.4472323193150284,-9.852988567879766,0.0
275,0.0,0.0,0.0,0.0,0.07434115855259282,-2.555652751364385,0.5524497049452606,0.0,-10.5683110319117,0.21024832323928777,0.9905837477542647,-1.0666398161785553,0.22460838617866408,0.0
276,0.0,0.0,0.0,-0.48286342004816385,0.0,-2.577589007679346,0.32927042015160035,0.0,-7.90938436424172,0.0,-0.11340954453244656,-0.9417509125455403,-0.8608547642352686,0.0
277,0.0,0.0,-0.30096767513974676,-0.21148778595140527,0.0,-2.3102243943821765,0.6173314438600954,-0.10110319512973298,-6.751319688745186,0.0,0.0,-0.5473406285952347,-3.3922603177756745,-0.16587281677170118
278,0.0,0.0,0.0,0.0,0.0,0.8844940546276954,0.0,0.0,-4.995059020736002,0.0,-5.951176720716336,-4.172888178435205,0.6350779724081992,0.0
279,0.0,0.0,0.0,0.0,0.0,-2.4539714655878813,0.0,0.0,-4.317956175159153,0.0,-4.399419213839405,-0.7706476468584604,-3.2954558290855633,0.0
280,0.0,0.0,0.0,0.0,0.0,-2.8819141138110815,0.6452560472598158,0.0,-8.731077431334429,0.0,1.0362072407638543,-1.1030443295621697,0.5498608437118175,0.0
281,0.0,-0.14311741287029547,0.0,0.0,0.0,1.7099863033346412,0.0,0.0,-7.378642214484342,0.0,-3.248995485146838,-1.0797097711639467,-0.7447234466074768,0.0
282,0.0,-0.3187994257715099,0.0,0.0,-0.21435955042835708,-2.364918769081502,0.0,-0.1363022384300674,-6.0962515143793485,0.0,-0.5015658688584388,-0.4105776352114088,-3.2852418517429562,0.0
283,0.0,0.0,0.0,0.0,0.0,-0.2449595329268277,0.0,0.0,-5.3689286427090055,0.0,-5.296940346202145,-1.114491265553502,-0.4014941494131108,0.0
284,0.0,0.0,0.0,0.42522397387011246,0.0,0.6856026503773567,0.0,0.0,21.608677127965517,0.0,2.37854634550105,0.0,0.7170900536924307,0.0
285,0.0,0.0,0.0,0.0,-0.13434725030048172,0.0,0.0,0.0,-1.7585188508032659,-4.548000988716343,-6.085426836233209,-0.95382306436792,-0.1888553593167206,0.0
286,-0.40440830921992493,0.0,0.0,0.0,0.0,-4.595275382190205,0.0,0.0,-5.176721908903794,0.0,-1.0797438593730282,-0.39997081683954583,-3.4451977466533297,0.0
287,0.0,0.0,0.0,0.0,0.0,-3.121017608536726,0.0,-0.15637666446339618,-3.751613907280567,0.0,-4.311775716911468,-1.2204592076738554,-2.702290935336544,0.0
288,-0.11337019424211334,0.0,0.0,0.0,0.0,-0.3200438547460621,0.0,0.0,-7.4363141616336605,0.0,-0.10630656141158286,-0.8184603555993741,-3.7047246242963094,0.0
289,0.0,0.0,0.0,-0.29734376149334274,0.0,-2.9713197877229747,0.4407162735112937,0.0,-8.301681899316488,0.0,0.0,-0.9571154860055504,0.2861483743939619,-0.033302115198345916
290,0.4304409045504798,0.0,0.0,0.0,0.0,44.06133600135624,2.5398158530553374,0.0,110.8606142128979,7.478611315563995,48.875732019752576,38.76464251898591,42.29695117045887,0.0
291,0.0,-0.26470597860218525,0.0,0.0,0.0,-0.07363934686669893,0.0,-0.0925030359622947,-7.163255659299196,0.0,-1.955075698198792,-0.9219459786570781,-0.9007668505922464,0.0
292,0.0,0.0,-0.3485490449254618,0.0,0.0,-2.515213436127377,0.7709242736015636,-0.3827262434195742,-7.102944638328188,0.0,0.9284283222924103,0.3249189976147382,-6.245917461587712,0.0
293,0.0,0.0,0.0,0.016764364185047675,0.0,-2.5685163473191888,0.0,-0.20574992439526385,-1.5412814806483068,0.0,-1.2728476826622876,-1.2087802006790236,0.06353752979805005,0.0
294,0.0,0.0,-0.21729555908485712,0.0,0.0,1.3632794153969163,0.0,0.0,-2.2337683879457417,0.0,-6.737700324790796,-0.6621499438538975,-0.6833700678464041,0.0
295,0.6617764854015018,0.0,0.0,0.0,-1.247854600566571,0.8604480252611681,0.0,0.0,-6.427571059394138,0.0,-4.492410405973369,-3.9715739545045263,0.0,0.0
296,0.0,0.0,0.01907455769103583,-0.21377908481390584,0.0,0.0,0.0,0.0,-1.804381683574865,0.0,-1.4255964822616893,-0.6187247966686558,-0.4341028952770536,0.6909211433062321
297,0.0,0.0,0.0,0.0,0.0,1.110742445667709,0.0,0.0,14.685295276187015,0.0,3.726455651096323,-0.8161932249247492,0.6034193185657166,0.0
298,-0.4873857275888968,0.0,0.0,0.0,0.0,-5.018522193330695,0.0,0.0,-5.192823588026888,0.0,-0.6879359817808418,-0.6584373903634473,-2.4131440685312047,0.0
299,0.0,0.0,0.0,0.0,0.0,2.047832245454541,0.0,0.0,-6.687082022481317,0.0,-4.928949868622983,-4.003078842481754,2.2119358171197696,0.0
300,0.0,-0.3434145516952505,0.0,0.0,0.0,-3.4748632248159277,-0.44161889270650523,0.0,-3.7129838081697324,0.0,-4.610328040556126,-0.3198583314693568,-2.360467190789656,0.0
301,0.0,0.0,0.0,0.0,0.0,-1.92820366233096,0.6691937918006676,0.0,-7.446649544392446,0.0,1.3038554360944765,-0.9365082552425008,-3.4983012785394916,0.0
302,0.0,-0.1661535395309004,0.0,0.0,0.0,-2.378421260010711,0.7382886682714185,0.0,-7.161470600830153,0.0,0.9388555499703051,-0.8403468495247726,-2.883854554208984,-0.083510926746456
303,0.0,0.0,-0.4206725659062456,0.0,0.0,-2.461192908031589,0.5412481083379643,0.0,-7.172311901384668,-0.0962007530265252,-0.4260084864681879,-0.4408136594797103,-3.2425754854452364,0.0
304,0.0,0.7144268371233764,-0.5732643332427498,0.0,-0.3792072348099689,0.0,0.2993569281811048,0.0,-2.1387575325831953,0.0,-6.9669005726817455,-0.4558764056477074,-0.38973664076760706,0.0
305,0.0,0.0,0.0,0.0,0.0,1.2429026567542347,0.0,0.0,-9.33752895738619,0.0,1.7148603071924802,0.6933225575943402,-8.608007241167126,0.0
306,0.0,0.0,0.0,0.0,0.0,1.4903034610569446,-1.1001598421445316,0.0,22.119755976434092,0.0,4.4337454836073995,0.0,1.1810653849525643,0.0
307,0.0,0.0,0.0,0.0,0.0,0.0,-0.22420010994684336,-0.09876158914466271,-5.231860667357112,0.0,-5.142486140053874,-0.7797255490891128,-0.7545614407900185,-0.20902454508300217
308,0.0,0.0,0.0,0.0,0.2935936992074828,-2.835285554036762,0.5397414492171464,0.0,-8.4818919354061,0.2867721847003759,0.8963283500475043,-1.0120453536141891,-0.8187842289311575,0.0
309,1.4171619959078385,0.0,3.2249195958720427,0.0,6.829615085458536,48.97016965559767,-0.26680198496133994,0.0,109.45530236543729,0.0,48.63037282604153,38.02402783371139,36.693174548466,3.0527362547778125
310,0.0,0.0,0.0,0.0,0.0,1.6825236214843677,-1.1457129764272125,0.0,33.70117392735878,0.0,7.073713752463899,-0.4874250874736461,2.6100894780241077,-0.7545642083109456
311,0.0,0.0,0.0,-0.741120516743563,0.0,-0.07800921420229656,-0.001143816376121265,0.0,-1.366961227686505,0.0,-6.336262386841398,-0.8536518339192183,-8.071909786089293e-05,-0.23219735632178384
312,0.0,0.0,0.0,0.4519608633242278,0.0,0.9813270225793698,-0.5178153098488174,0.3991197483634359,14.38438750057712,0.0,1.998198554570088,-1.0544352313507321,0.325065002459354,0.0
313,0.0,0.0,-0.002182560805103151,0.0,-0.8763149501473366,-2.0345517963575244,0.0,0.1842531863440282,-6.138375231705878,-0.10502752519383396,-0.7342115903559581,-0.7996155186944822,-3.3601618007109515,0.0
314,0.0,-0.17804287063207536,-0.2638812800060777,0.0,0.0,0.0,0.019240724356172856,0.0,-2.1207274434353773,0.0,-0.6484381165648436,-1.0349347814333818,-0.6969409795595887,0.0
315,0.0,0.0,0.0,0.0,0.0,-6.449842406973957,0.0,0.0,-6.649792587944282,0.0,0.0,-0.8268794881509987,0.0,0.0
316,0.0,0.0,-0.3059439395230674,-0.39603734775472255,0.0,-2.6129750876502396,0.13562972541463836,0.0,-1.2496850675108435,0.0,-1.1841624384525016,-0.37882744791246203,-0.356197023902185,-0.368675114429589
317,0.0,0.0,0.0,0.0,0.0,-2.301885859421309,0.0,0.0,-6.674671817966423,0.0,0.0,-0.9839503536737133,-3.2027370275693183,0.0
318,-0.033397720140819764,0.0,0.07063767861244408,0.0,0.0,0.0,-0.08146971709179787,0.0,-2.0054539162220126,0.0,-6.769091785616149,-0.636230867187142,-0.5000441919716914,-0.13334183401176247
319,-0.13368123165654033,-0.1844413691744613,0.0,-0.1461631124655085,0.0,-2.5253169434303477,0.0,0.0,-8.149511354789613,-0.18144885322297277,0.08035519348617282,-0.6224041898677672,-0.6818456704253748,0.0
320,0.0,0.0,0.0,0.2993529248463625,0.0,0.8958453937160613,0.0,0.0,14.39194186684914,0.0,1.9102166816532415,-0.586566858371256,0.6899488975957304,0.0
321,0.0,0.4102734293489382,0.0,0.27213195796087253,0.5265921427195016,5.347637560927618,-1.35062771316031,0.0,16.003865504412015,0.19372284465555958,1.4410450932311847,-1.2581420958762297,0.40897742572247253,0.0
322,0.0,0.0,0.0,0.0,-0.9290336464284685,-0.22627011812148634,0.0,0.0,-5.2388106914204515,0.0,-5.1807949712837,-0.9186554082824046,-0.3671723289830737,-0.049313800406954655
323,0.0,0.0,-0.5780167297985592,-0.25285441213151927,0.0,-3.856187259582695,0.0,-0.34605811660753627,-2.825128538185032,0.0,-4.187281404487358,-0.42944484997615895,-2.7890327548985887,0.0
324,0.0,0.0,0.0,0.0,0.7151780957674738,4.5812575836003155,0.0,0.0,15.787627388368922,0.0,4.290110888217395,-1.2560858065007636,0.0,0.0
325,0.19220870116475863,0.2001264403737557,-0.4692552814351174,0.44876626826732835,0.0,-12.15248706122037,0.0,0.0,9.024092057776619,0.0,1.4232327444936783,-0.5508615332018492,0.5336397908956738,0.0
326,0.0,0.0,0.0,-0.12292466537807362,0.0,-5.913342380028873,0.0,0.0,-1.7502495453707922,0.0,-4.118404765746562,-0.6010424787195029,-0.6639211808149366,0.0
327,0.0,0.0,-0.22881718118528127,-0.3886906869747566,0.0,-2.86068316887407,0.5184363222407704,0.0,-7.951137914990054,0.0,-0.43318247104913876,-0.5134095879252021,-0.49917406536784803,-0.18779877742083073
328,0.0,0.0,-0.08674919531757114,-0.11192316879306353,0.0,-6.092837912986879,-0.07920939803347336,-0.44009561211968545,-1.5193185984592894,0.0,-4.269038868980329,-0.6824067334717038,-0.5417551206159962,0.6534495927192481
329,0.0,0.0,0.0,0.0,0.0,0.0,0.0,0.0,-1.9743253411487036,-0.22881260502519973,-6.895059087110802,-0.8344195056760926,-0.1414854818739446,0.0
330,0.0,0.0,0.0,0.3522495781588244,0.11383250474623985,-2.7793327017190013,0.5934462920204311,0.0,-9.774677247263725,0.14880196351701613,1.0931716387311736,-1.013272540495346,-0.7400207845008122,0.0
331,0.0,-0.0504891639491305,-0.12450609172140048,0.0,0.0,-0.07364237071200641,0.0,0.0,-6.979009855312036,0.0,-2.745450207737411,-0.8327264697911332,-0.5660683889553741,0.0
332,0.0,0.0,-0.25122316450419113,-0.39579449078799467,0.0,1.7792351450875143,0.5842934086906677,0.0,-6.55810217135908,0.0,-4.420228098536567,-3.8424300409034267,1.7449067413013335,0.0
333,0.0,0.0,-0.08522545767065261,-0.2919652089836663,0.0,-0.2568024166538831,0.039662086935120223,-0.21946557248732865,-9.116825962316007,0.0,0.01600035430653094,-1.1823735604890677,-0.4915499055974351,-0.05101515244500199
334,0.0,0.0,0.0,0.0,0.0,1.1546122590417824,0.0,0.0,-7.1562522718302,0.0,-4.062645129278511,-3.896974795790518,0.0,0.0
335,0.0,0.0,0.0,0.0,0.22581290884136607,-2.6901516540769563,0.32838174168146406,0.0,-8.994648230937663,0.0,1.4641249912580934,-1.0517538473554495,0.48920712963879076,-0.255684782021838
336,-0.23343892208506892,0.0,0.0,0.0,0.0,-1.1559891399321343,0.0,0.0,-6.538778021840374,0.0,-2.009284792654357,-1.0050413120804884,-3.965195804513286,0.0
337,0.0,0.0,0.0,0.0,0.0,1.1716860333866865,0.0,0.0,14.664841460271694,0.0,4.0228872580184785,-1.0026923444404705,0.6394060559376555,0.0
338,0.0,-0.12393790033000229,0.0,-0.15932896629429294,0.0,-2.702926352574517,0.25143479395988155,0.0,-7.791429475556129,0.0,-0.32299161554906775,-0.9337041741544176,-0.6801028593423819,-0.11463977443009554
339,0.0,0.0,0.0,0.0,0.0,0.9939945625129476,0.0,0.0,-6.488107937617915,0.0,-4.432768325574075,-3.9594337410236182,0.0,0.0
340,0.0,0.0,0.0,0.0,0.0,-5.477051208273171,-0.37349774569645877,-0.3729970573463115,-1.2995156666764558,-0.23563954276441557,-4.532192781686653,-0.6501209512845838,-0.3321804319831214,0.10331036965243179
341,0.0,0.0,0.0,0.0,-0.568011827069411,-2.027218897552022,0.0,0.7256817026948803,-7.102246797359198,0.0,0.668080585779796,-0.5397341592597718,-3.2174549676228477,0.0
342,0.0,0.0,0.0,-0.20704953336893528,0.0,-2.7534808512138103,0.5563352953813299,0.0,-8.011254556069519,0.0,-0.40018573343348507,-1.1048188854106655,-0.624003267431327,0.0
343,0.0,0.0,0.0,0.0,0.0,-2.979237699116646,0.0,-0.23822519077569293,-4.490053279508535,0.0,-3.801545760385391,-0.9214490474980188,-2.590551728782607,-0.24309271628273876
344,0.0,-0.2703020523835016,-0.25193046018763443,-0.6062195770900489,-0.5464967731472523,-3.462775049380914,0.0,0.0,-3.87961604130032,0.0,-3.909289130547177,0.0,-2.3369143215455193,0.0
345,0.0,-0.22494115653716973,-0.24631532713884008,0.0,0.0,-4.120716089100835,0.0,0.0,-4.999031890573665,0.0,-1.8299204589928122,-0.6291557115409727,-3.040620654671624,0.0
346,0.0,0.0,-0.38393158763184054,0.0,0.0,1.333775719090581,0.0,0.6614819098593712,-6.492242380501961,0.0,-4.392565976128774,-4.053057279926421,1.9671969242273004,0.0
347,-0.1941472364748229,0.0,-0.05729000547268104,0.0,0.0,1.4054623633299865,0.0,0.0,-5.716087375293189,0.0,-5.898221480520334,-0.9710928624381854,-0.7158965627289433,0.0
348,0.0,0.0,0.4686816457906815,0.0,0.0,46.68287660141689,8.085184665959787,4.575228192987197,108.86803150359634,0.0,42.310538375386386,33.088404988052105,48.232557082315196,0.917295237991766
349,0.0,0.0,0.0,-0.017167600844264483,0.0,-2.1398519213499076,0.0,0.0,-6.5070475130037995,0.0,-0.3330171004804534,-1.0541238561239314,-3.1710964483133903,0.0
350,0.0,0.0,0.6044333971608089,0.0,0.0,1.6972809525921448,0.0,0.0,-9.083683616808038,0.0,1.314185839344241,0.0,-8.786267757514462,0.0
351,0.0,0.0,0.0,0.0,0.0,0.8446363894469657,0.41777863851516006,0.0,-6.324720149523813,0.0,-5.057131828132789,-4.49191615766515,0.8184735743248162,-0.2281697047875415
352,0.0,0.0,0.0,-0.08214286169656138,0.0,-2.6185178784282006,0.0,-0.05263862755481519,-9.019545045140559,0.0,-0.21075604586740404,-0.9285900982992796,-0.75290474902706,0.0
353,0.0,0.0,0.020815777477001654,-0.6575570149461234,-1.1322598964758959,-2.7047973037840696,0.574614429950588,0.0,-7.759335172109004,0.0,-0.11682632393128314,-1.1451616454591422,0.5546928610976065,-0.03536011462768762
354,-0.2969802828596979,0.0,0.0,0.0,0.0,0.0,0.0,0.0,-5.923975143190453,0.0,-4.931410664406668,-0.6042447453255155,-0.6776503437590709,0.0
355,18.37476018959586,0.0,0.0,15.255452484306176,-15.628358389091218,34.27320279042249,7.389155887758662,0.0,100.96011024408554,0.0,44.10267042853394,40.22810212391592,41.61092177225021,0.0
356,0.0,0.0,-0.2499910399612828,-0.20017173817092804,0.0,-2.249395414055016,0.0,0.0,-6.748816600304067,0.0,0.025309343798911144,-0.5391716152635802,-3.2010079946748,0.0
357,-0.1321230971097096,0.0,0.0,0.0,-0.21002798416682378,-0.14675259299743804,0.0,0.0,-1.9519797533729246,0.0,-6.572278271996932,-0.5681263189089085,-0.32188895533123674,-0.2388352413477417
358,0.0,0.0,0.0,0.0,0.8178027913024861,1.03010800412651,0.0,0.0,-9.634185865023415,0.5375742046817287,1.1546809097388309,0.17803142015641882,-8.723503497692068,0.2920266004482226
359,0.0,0.0,-0.1400083375358161,-0.3309336879887921,-0.969071363444634,-2.412473645926573,0.0,0.0,-7.499231236600075,0.0,-0.42165784678453555,-0.9253141123343802,-0.525287192670497,0.0
360,-0.23325845886517094,0.0,0.0,0.0,0.0,-2.517285848684753,0.5537041648551659,0.0,-6.637162154421519,0.0,1.2936833423678293,-1.032183958695967,-3.34774187625019,0.0
361,0.0,0.0,-0.40118408238864267,0.0,0.20282679497415826,-2.2707916611343877,0.6690540378749069,-0.18011912140020883,-7.543676348894636,0.4557578417650748,1.6187561998176858,-1.006673531306412,-3.430386687648385,0.0
362,0.0,0.0,0.0,-0.2375185077379447,0.0,-4.199792950230286,1.1499964058116507,0.0,-4.396919353849308,0.9083759471322237,-4.401619521065204,-1.3404223707344336,-2.6489976661463306,-0.09751674161412538
363,0.0,0.0,0.0,0.18124449550997512,0.2568363118267504,-6.0101744209207695,-0.4358112127667265,-0.20274118007290823,11.841578692376457,0.17313465753753957,2.156130248462938,-0.8812022107030771,1.1107556710351973,0.0
364,0.0,0.0,0.0,0.0595563098166747,0.0,0.0,0.0,-0.13425023132478286,-1.8335849746640642,0.0,-6.13318649755314,-1.0122041032896192,-0.5971834787824939,0.018344125128699318
365,0.0,0.0,-0.18447421915228368,-0.32668132751348367,0.0,-1.54040642563535,-4.480752227475877,0.0,-5.180139034703235,-0.2958672823380102,-0.3472475299136608,-1.205158387894265,-0.5589982926218457,0.0
366,0.0,0.0,-0.31128890299033607,0.0,0.0,-3.2065176996598215,-0.5193344867221397,0.0,-3.8261192690528327,0.0,-4.595371492628312,-0.23072390778087026,-2.574642448814142,0.0
367,0.0,-0.026879435943705676,0.0,0.0,-0.2553595238149864,-4.405936057617448,0.0,-0.44460271927724015,-5.6844132891645955,0.0,-1.7284458026683005,0.1822250625038091,-2.722898195073107,0.0
368,0.34840592159392614,0.0,0.0,0.23304648202718958,0.14361713274468535,5.01299613920053,-1.114993548927849,0.0,16.025331733033717,0.6358122597204137,1.71993663650313,-1.008676605954122,0.0,0.0
369,0.0,0.0,-0.2167856554928021,-0.27033898604338064,0.0,0.012854203227907405,0.11477785675038057,-0.2833007506843359,-1.7755637883648419,0.0,-6.564648494809729,-0.6123670502910722,-0.23987284145194712,-0.23885651367492144
370,0.0,0.0,-0.07196855750338704,0.0,0.0,-2.3812484726859893,0.6632869720128105,0.0,-6.165474381256681,0.0,1.4224262976506004,-0.8117196613920648,-3.2781302995081756,0.0
371,0.0,0.0,0.0,-0.2526957090989126,0.0,-3.0251412273300486,0.842230826171912,0.0,-4.472541350421606,0.2956983175859951,0.0,-0.8086527479687353,1.0496130699582435,-0.3729775796144015
372,0.0,0.0,-0.0999488789799372,0.0,0.0,0.0,0.0,0.0,-7.6927278642208154,0.0,1.4801534063510786,-0.7016432021075572,-3.9534405783130575,0.0
373,0.0,-0.32238646555867145,-0.07644233132675371,0.0,0.0,-2.332156601133316,0.8108111742856812,0.0,-8.89333405636222,0.0,1.0711761790763568,-0.7433859837430852,-0.6458533040536913,0.0
374,-0.24159758878424759,0.0,-0.17204782677068245,0.3874684647635925,0.0,-2.5843650474173203,0.40121493329243757,0.0,-8.657915305813193,0.2669917536227898,1.1704356476478475,-1.1254390660013398,-0.5850620699998714,0.0
375,0.0,0.0,0.0,0.0,0.0,-2.842840885423874,0.4478923447593786,0.0,-7.133044000513062,0.0,1.517975807836939,-0.8629683133809439,-0.6308135340191843,0.0
376,0.0,0.0,0.0,0.0,-0.27718502023259184,-2.1539017614497986,0.6930251163139607,-0.3715454179563471,-7.434422108319723,-0.10323225702893701,-0.7929154749344756,0.005218386435066336,-3.685147540592439,0.0
377,0.0,0.0,0.0,0.0,0.0,-2.576223636405318,0.5127295827936402,-0.05075441882612619,-9.532356934172846,0.0,0.9965828259959508,-1.0495801929848945,-0.7458500124634195,0.0
378,0.0,-0.20090535038436208,-0.4306898481555339,0.0,-0.22061370513653777,-4.352806945118025,0.0,0.0,-5.238703219182831,0.0,-1.1885197059173036,-0.18778063291022562,-3.2656317441120546,0.0
379,-0.09869310233039964,-0.1937051901407934,0.0,-0.26918395394406697,-0.361500291504572,-2.4038787281842002,0.5151834835726121,0.0,-7.921585513641591,0.0,-0.5250122049050112,-0.8761595639587177,-0.6497651197842096,0.0
380,0.0,0.0,0.0,0.0,-1.8970012399156015,0.6533744887070538,0.5462842902599725,0.0,-6.893117833266432,0.0,-4.32316147475969,-3.7602773490700114,1.4443896900972817,0.6450781605916891
381,0.0,-0.25596821808180215,0.0,0.0,0.0,-2.613317967269537,0.4797297384453878,0.0,-9.917848790932592,0.0,1.2866080187952598,-1.0417693783668875,0.6539373224708154,0.0
382,0.0,0.0,-0.24394113915434978,-0.27293967873639957,0.0,-2.839347322449358,0.44804873555612446,-0.03811466364953198,-8.549505874684126,0.0,-0.15053103662678158,-0.8251440873402887,0.6069444077917172,0.0
383,0.0,0.0,-0.4293928108805831,0.0,-0.7097436978222795,0.0,-0.17479661331289442,-0.0710924632343799,-4.87361033674247,0.0,-5.032155565682858,-0.6302545031096596,-0.35909860489427725,-0.47922248939484113
384,0.0,0.0,0.0,0.0,0.0,-3.7997758509895565,0.7984101114640105,-0.22174452779558607,-5.661562828105237,0.0,-1.6993531879709725,-0.48242033753060554,-3.940204459297817,0.0
385,0.0,0.0,0.0,0.0,0.0,0.0,0.0,0.0,-2.000215244209113,0.0,-6.060725445702562,-0.9125667820053159,-0.6576543137798119,0.0
386,0.20573679732776817,0.0,-0.29457656225555784,0.0,0.0,-5.334794046302022,0.0,0.0,-4.73054475198971,0.0,-0.23630050425891014,-0.9674126895099242,-3.100357192633618,0.0
387,0.0,0.0,-0.3489035703582837,-0.19059177459434729,0.0,-2.409327508229823,0.0,0.0,-8.142682757896736,0.0,-0.2417366166439976,-0.7174369247972692,-0.49377837902595445,0.0
388,0.0,0.0,0.0,0.0,0.0,1.4701866210717962,-0.20263509031755422,0.0,-7.4841273803565596,0.0,-3.003459435391273,-0.9279396327361846,-0.6975379986087873,-0.03968911059969393
389,0.0,0.0,10.459039196200564,0.0,0.0,45.45916952707728,-2.152221885259067,5.636985070656095,106.4644952089956,0.0,45.701880968336994,25.239076460100165,45.457818815748084,0.0
390,0.0,0.0,0.0,0.0,0.0,1.672324847479348,0.5831449588199756,0.0,-10.502301430424213,0.0,3.550775946541717,-5.5467667373488245,0.7152206000909072,0.0
391,-0.3806295737743306,0.0,0.0,0.0,0.0,-1.8692292235027774,0.0,0.0,-6.756793068593165,0.8339126429997497,1.2248912664735858,-0.9276404981345738,-3.9670216263770826,0.0
392,-0.029208796173356255,0.0,0.0,0.0,0.0,-2.761318001718445,0.4831470086823271,0.27630251699462427,-10.515528572815954,-0.000344244599660648,1.2274199375347203,-1.083684137064413,0.2648420103755864,0.0
393,0.0,0.0,-0.016400561791742874,-0.5564407178064128,0.0,-3.357446390283337,0.0,0.0,-3.8163585777318914,0.0,-4.080801950592599,-0.9718785170785411,-2.460321618031381,0.0
394,0.0,0.0696028849068755,0.19851723633100082,0.0,0.0,4.4998154885759325,1.4076965776388652,0.05200780894745849,-6.734772647582501,-0.014046611837624567,4.770931339689939,3.720427002639557,1.82426114511399,-0.0053868802680003824
395,0.0,0.0,0.0,0.0,0.4966902180784514,3.797529168044295,-0.7482651813594687,0.0,15.64161347647142,0.3641518289171781,1.1899701581719473,-1.0527151191890027,0.5416547990489917,0.0
396,0.0,0.0,0.0,-0.17341272667814822,0.0,-0.3538763253136956,0.513920997202785,0.0,-7.3914700040883075,0.0,-2.396230171148389,-0.835903711948478,-0.636802723991913,-0.12948756833905328
397,-0.39671424467813976,-0.14905450966689893,-0.13734736162843353,-0.18612443997175276,-0.19966118769638586,-2.3938341978748117,0.8736195203502373,0.0,-8.053198584981612,0.0,-0.2692706224715451,-0.784792185820633,-0.7086785067745929,-0.22784019806377742
398,-0.046218628081473145,-0.29873311810722103,0.0,0.0,0.0,1.0903073884864654,0.0,-0.060757333064250574,-2.0007911105532585,0.0,-7.444520089631828,-0.855160312179704,-0.10784982753013139,0.0
399,-0.10259104144611086,0.0,0.0179357462734826,0.0,0.0,-0.13191694288175704,0.0,0.0,-9.05863272713585,0.0,-1.6029938522675504,-0.8834777922897548,-0.6593719032702641,-0.08211587430253431
400,0.0,-0.05955257059383879,0.0,0.0,0.0,-4.24510674267452,0.0,0.0,-5.195659667387317,0.0,-1.5221629813102562,-0.5262111101574011,-3.5656818253317013,0.0
401,0.0,-0.16422312573630116,0.0,-0.43014905106018686,0.0,-2.55809834828551,0.0,0.0,-7.639024421928882,0.0,0.07693320014215033,-1.0059827583491767,-0.7751108889536269,0.0
402,0.0,0.0,0.0,0.0,0.0,1.8463009193879842,0.0,0.0,-9.381226171523858,0.3483869231043235,2.0478730126155504,0.0,-9.115385868809305,0.0
403,0.0,0.0,0.0,0.5415014229754895,0.15582734494652684,0.8628436204104162,2.2558333397305574,0.0,16.196727280236583,0.31529579864228197,1.8281843692643722,-0.8128276474022016,0.6924119712352521,0.0
404,0.0,0.0,0.0,-0.1780496782376213,0.0,-4.749086968565209,0.0,0.0,-5.69582874826952,0.0,0.0,-0.5628898418603523,-2.5176283213394797,0.0
405,0.0,0.0,0.0,-0.3236878460212296,0.31685868053204436,1.8150449996482285,-0.23130450128815716,0.0,-1.6080620001752863,0.0,-1.5993088832191005,-1.0291744104844402,-0.7975374069489785,-0.055280376693739974
406,0.0,0.0,0.0,0.0,0.7229382952080954,0.0,-19.785757866746515,0.0,5.647942850205467,0.0,0.0,-0.6270111936494751,-0.8510961241800281,0.0
407,0.0,0.0,0.0,-0.259038643366738,-0.5068125679691207,-3.4566133481936525,0.0,-0.5465469961384146,-3.729335582479063,0.0,-3.3152087162209822,-0.8600305328502298,-2.5899570183641636,0.0
408,0.0,0.0,0.0,-0.13530538295674346,0.0,-2.066432783077224,0.0,0.0,-6.528895988122369,0.0,-0.17625949095046617,-0.6495350952754281,-3.61104419491174,0.0
409,0.0,0.0,0.0,0.0,0.0,0.8699279305101753,0.0,0.0,-5.947534026883551,0.0,-5.77987199697055,-3.60164746178876,0.0,0.0
410,0.0,0.14194876950941548,0.0,-0.027190151109134142,0.0,-0.4118429812986095,-0.16988463585116165,0.0,-7.043762409330252,0.0,-2.263667527772329,-0.7691131773248978,-0.7038312377356046,-0.13539295108061467
411,-0.19172207113478335,0.0,-0.10854632979134671,0.0,0.0,0.0,0.0,-0.33347043728985604,-1.7777809442285042,0.0,-6.375213725201641,-0.7376865135883346,-0.549681999600276,0.0
412,0.0,0.0,0.0,0.0,0.0,1.2287788510101674,0.0,0.0,-5.8783237396467705,0.0,-5.427442615887548,-3.9440617332982004,0.0,0.0
413,0.0,0.0,-0.17413172543581457,0.09061309229252323,-0.07560392744552846,-0.1776563717859989,0.0,0.0,-6.9333277067296315,-0.07255135298290938,-2.457637352627051,-1.0362504193037374,-0.5461905379750416,0.0
414,0.0,0.0,-0.24568303329491403,0.0,0.0,-5.8909160401701675,0.0,0.0,-1.5953392797269483,0.0,-4.426534822095769,-0.2540614425331107,-0.5157750160372618,-0.24157538220056907
415,0.0,0.0,-0.2945412560122671,0.0,0.0,-3.9768723287766012,0.0,-0.24975957200993015,-4.919712281966142,0.0,-1.6071484138810348,-0.6013493161484238,-3.437186281082205,0.0
416,0.0,0.0,0.0,0.5601179218551081,0.0,4.541913301909716,0.0,0.0,15.908859601425494,0.0,0.9845853247513077,0.0,0.0,0.0
417,0.5366765033307814,0.0,1.5964328382157593,0.0,1.0585712011156267,-22.72715085944436,3.6196435329181726,0.0,49.16643264427339,0.9363862678707131,20.730359363182263,12.182635873989094,12.359958694158152,0.0
418,0.0,0.0,0.052344447399025995,0.0,0.0,-3.4032837248134795,0.0,-0.3027892492765094,-3.788749528961473,-0.5389379686928208,-4.315476764662037,-0.3882993569321904,-2.5783418942630707,0.0
419,0.0,0.0,0.0,0.0,0.0,-4.309322929507708,0.0,-0.30977905100650144,-5.264475335361003,0.0,-1.5690430430119404,-0.6305259213911942,-3.0262223932596797,0.0
420,-0.07261966623411968,0.0,-0.03201862781857089,0.0,0.0,0.031778254836397644,-0.07238913472452403,0.018416877745514395,-7.079602733722959,0.0,-2.528503425590216,-0.8284368858640937,-0.5039878525854863,-0.29194657528977075
421,-0.06983296687084452,0.0,0.0,-0.44710081307860305,0.0,-2.5440645622036566,0.0,0.0,-4.172449323560886,0.0,0.0,-1.0116464872691657,-0.16478228954347962,0.0
422,0.0,0.0,0.0,0.282495339575223,0.0,1.091813945570589,-0.37071168968089463,0.0,14.994955042872725,0.3483219829393889,1.7563414960832873,-0.7647435295387206,0.29765526500088413,0.0
423,0.0,0.0,0.6827371681940342,0.6053992925869167,0.0,5.8554671713060795,1.348048655372807,0.0,1.519760528067188,0.0,8.693195628611228,4.610584876451341,2.3506680543130187,0.6913930343163557
424,0.0,0.0,0.0,0.0,0.0,-4.1667701341201555,0.0,-0.09635640888774699,-4.562269283597795,0.0,-1.8268096253681019,-0.7551843658096254,-3.6392303043858902,0.0
425,0.0,-0.16946910619143374,0.06424113396933251,-0.11674339956343083,0.0,1.81429197961286,0.0,0.0,-2.011732163427774,0.0,-6.695429373928555,-0.9202590442990379,-0.8218036751194955,0.0
426,0.0,0.0,-0.08113311253461664,-0.3208268477515883,0.0,-0.39570243343531697,0.4239105953872704,0.0,-9.175821249726571,0.0,-0.17192683063999414,-1.2819433848906208,-0.8376127249065322,-0.10211441650730713
427,0.0,0.0,0.0,-0.3790208226577108,0.0,-2.90739863268259,0.5377920409389155,0.0,-8.526626497611248,0.0,0.0,-1.0550262587646408,0.4963817689458292,0.0
428,-0.32628723376096286,0.0,0.0,0.0,0.0,-4.562562036584693,0.0,0.0,-4.3593624435469325,0.0,-1.419250424412932,-0.845842646300694,-3.572346366310658,0.0
429,0.0,0.0,0.0,0.0,-0.3187942173679681,-3.1300367497192934,0.0,0.0,-5.582677593119667,0.0,-1.7696347427487797,-0.5447131555148363,-3.6311395175125956,-0.02965510424262341
430,0.0,0.0,0.0,0.0,0.0,1.1802152515281947,0.0,-0.1570865667791992,-6.304110875006055,0.0,-4.409372592917322,-4.188012617566061,0.0,0.0
431,0.0,0.3942194950687785,-0.1702186209713883,-0.13969415957292064,0.27551721007553454,-2.6767535234253454,0.6589774949099221,0.0,-8.94682666243512,0.0,-0.4849684625262277,-1.2319566060351406,-1.0061903322720074,-0.3372011388299665
432,0.0,0.0,-0.11260124740279309,-0.015850552966617748,0.0,-0.2623726072661148,0.0,0.0,-6.617586652411488,0.0,-2.8047689800922626,-0.9195878509164874,-0.6499684109374257,0.0
433,0.0,-0.27219351374013456,0.0,0.0,0.0,-2.7616823772509123,0.3891627403480431,0.0,-9.116995856531076,0.0,1.2551409253188703,-0.6184392093727151,0.6402955482557324,0.0
434,0.0,0.0,-0.4030937070579981,-0.11818273195776019,0.0,1.8699578892388864,0.0,0.0,-2.315898959707015,0.4299635910950803,-6.808977301142912,-0.9486636709893457,-0.4806120768141704,-0.08139668161230063
435,0.0,0.0,0.0,-0.3293734666508539,0.0,0.0,0.0,0.0,-1.3502593347358727,0.0,-1.4679543694899633,-0.6403374098481109,-0.7388551668555463,0.0
436,0.0,0.0,-0.173990510887686,-0.3051045978071032,-1.2812451661623745,-2.2262708940970115,0.32607408911604513,0.0,-8.101021975025747,-0.28751720971091366,-0.180583602856131,-1.031019604726942,0.6024199844346949,0.0
437,0.0,0.0,0.0,0.0,-0.6321018055299413,-3.2620889935348494,0.0,0.0,-4.285482006204821,0.0,-4.779262770548866,-0.1698041466540121,-2.1347943177300674,0.0
438,-0.11687736747298587,0.0,-0.10825592237038552,0.0,0.0,-0.23539520273745546,-0.11273824705626177,0.0,-9.255271661075742,0.3009848204395122,-0.07560840170637552,-1.2598257289575518,-0.7814594574564488,0.004886372992302768
439,-0.16546582169711632,-0.033351575720323545,-0.23916496316612684,0.041258406695726,0.0,0.0,-0.2878459316904389,0.0,-2.140092730134325,0.3708109356444522,-6.509858495208881,-0.9086793145546963,-0.5108543990748284,0.5263459620049211
440,-0.08272488145690993,0.0,0.0,0.0,-0.34460598156306554,-4.232952072013361,0.0,0.0,-5.031103465096527,0.0,-1.2959156769061515,-0.7579043899397986,-3.3413629829007885,0.0
441,0.0,0.0,0.0,-0.24675195423220764,0.0,-2.9923663460514103,0.5094706501038209,0.0,-8.434167117157326,0.0,-0.3390846441557418,-0.9162565495969872,0.8370665787428795,-0.26299943391318514
442,0.0,0.0,0.0,0.0,0.0,-3.005660138578584,0.22464506977651366,0.0,-8.389762645796324,-0.27682920444237036,-0.30938978668578265,-0.7099687363957585,0.5510694073105125,0.0
443,0.0,0.0,0.0,0.0,0.0,1.935786814277497,0.1787400866768877,0.0,-8.94607233459229,0.0,1.5038252408987887,-0.8921744295643362,-4.092161061403603,0.0
444,0.0,0.0,0.0,-0.11373152810541809,0.0,1.8929962300774594,-0.22893273067612974,-0.2873823500580084,-1.7368453486652617,0.0,-1.392335687949209,-1.0866847117027478,-0.5595356175713446,0.0
445,0.0,-0.04586872246061526,-0.28176363216637473,0.0,0.0,-2.460916408888412,0.8252813947635224,-0.515233260367988,-4.518045860993303,0.0,-4.355775086069033,-0.37405533071177083,-3.1509818087555477,-0.36009161488093966
446,0.0,0.0,0.0,0.0,0.0,-2.691202741766436,0.552065039658546,0.0,-8.981799317114207,0.0,1.3909248509613295,-1.050230406564743,0.2955308318533181,0.0
447,0.0,0.0,-0.07157529802164575,-0.10084972481322074,0.0,-2.5950336642473433,0.0,0.0,-8.210401459842785,0.0,-0.3866894027673231,-0.5899664408261192,-0.6834074453655505,0.08757768068950433
448,0.0,0.0,-0.17065118357548137,0.0,0.33120690173993994,0.9530462965638264,0.0,-0.29184989566228303,-6.747548209572873,0.0,-4.3969937804977235,-3.484464602765831,2.363208357324112,0.0
449,0.0,-0.2941855566349032,0.0,0.0,-0.005805283879148249,-2.258238510908773,0.60896109949711,0.0,-8.467911999480478,0.0,0.7429500739880872,-0.9513364915365123,-0.5060047198610818,0.0
450,-0.20736072304949849,0.4453449343699232,-0.2168829622442452,-0.13726336550055596,0.0,0.0,0.0,0.0,-1.9008937980716727,0.0,-6.3174194991738375,-0.5349519248990537,-0.7475900265040831,0.0
451,-0.09595134294978713,-0.41913509010358396,0.0,0.0,0.0,-1.2568839594934982,-4.945366642783275,-0.5120960317028533,-4.465634411236621,0.0,1.086145811287814,-0.5328175817556611,-2.9628879796168075,0.0
452,0.0,0.0,0.0,-0.08347987011137893,0.0,0.0,-0.1160984887208891,0.0,-1.7407260379340939,0.0,-6.132961610800249,-0.7559231096287536,-0.7629421165910379,0.0
453,0.0,0.30276464345343435,0.0,0.0,0.0,1.54297964934509,0.562072798434488,0.0,-9.927220845555288,0.0,1.2616117409039944,0.4916707082215801,-8.82293149064203,0.3098194826608509
454,0.0,0.0,0.0,0.0,0.0,-1.9277135594241201,0.0,0.0,-7.266775186268658,0.0,1.1410957196273142,-0.4609460419014244,-3.334345815721857,0.0
455,0.0,0.0,0.4068509909341804,0.0,0.0,1.1741334805912418,0.21932977110713914,0.0,-6.816059867993801,0.0,-5.054738805549924,-4.552546959800734,0.18368760873654377,0.35339688771226996
